%!PS-Adobe-3.0
%%BoundingBox: 24 24 588 768
%%Title: Enscript Output
%%For: Brett Giles
%%Creator: GNU enscript 1.6.1
%%CreationDate: Mon Feb 10 08:35:38 2003
%%Orientation: Portrait
%%Pages: (atend)
%%DocumentMedia: Letter 612 792 0 () ()
%%DocumentNeededResources: (atend)
%%EndComments
%%BeginProlog
%%BeginResource: procset Enscript-Prolog 1.6 1
%
% Procedures.
%

/_S {	% save current state
  /_s save def
} def
/_R {	% restore from saved state
  _s restore
} def

/S {	% showpage protecting gstate
  gsave
  showpage
  grestore
} bind def

/MF {	% fontname newfontname -> -	make a new encoded font
  /newfontname exch def
  /fontname exch def

  /fontdict fontname findfont def
  /newfont fontdict maxlength dict def

  fontdict {
    exch
    dup /FID eq {
      % skip FID pair
      pop pop
    } {
      % copy to the new font dictionary
      exch newfont 3 1 roll put
    } ifelse
  } forall

  newfont /FontName newfontname put

  % insert only valid encoding vectors
  encoding_vector length 256 eq {
    newfont /Encoding encoding_vector put
  } if

  newfontname newfont definefont pop
} def

/SF { % fontname width height -> -	set a new font
  /height exch def
  /width exch def

  findfont
  [width 0 0 height 0 0] makefont setfont
} def

/SUF { % fontname width height -> -	set a new user font
  /height exch def
  /width exch def

  /F-gs-user-font MF
  /F-gs-user-font width height SF
} def

/M {moveto} bind def
/s {show} bind def

/Box {	% x y w h -> -			define box path
  /d_h exch def /d_w exch def /d_y exch def /d_x exch def
  d_x d_y  moveto
  d_w 0 rlineto
  0 d_h rlineto
  d_w neg 0 rlineto
  closepath
} def

/bgs {	% x y height blskip gray str -> -	show string with bg color
  /str exch def
  /gray exch def
  /blskip exch def
  /height exch def
  /y exch def
  /x exch def

  gsave
    x y blskip sub str stringwidth pop height Box
    gray setgray
    fill
  grestore
  x y M str s
} def

% Highlight bars.
/highlight_bars {	% nlines lineheight output_y_margin gray -> -
  gsave
    setgray
    /ymarg exch def
    /lineheight exch def
    /nlines exch def

    % This 2 is just a magic number to sync highlight lines to text.
    0 d_header_y ymarg sub 2 sub translate

    /cw d_output_w cols div def
    /nrows d_output_h ymarg 2 mul sub lineheight div cvi def

    % for each column
    0 1 cols 1 sub {
      cw mul /xp exch def

      % for each rows
      0 1 nrows 1 sub {
        /rn exch def
        rn lineheight mul neg /yp exch def
        rn nlines idiv 2 mod 0 eq {
	  % Draw highlight bar.  4 is just a magic indentation.
	  xp 4 add yp cw 8 sub lineheight neg Box fill
	} if
      } for
    } for

  grestore
} def

% Line highlight bar.
/line_highlight {	% x y width height gray -> -
  gsave
    /gray exch def
    Box gray setgray fill
  grestore
} def

% Column separator lines.
/column_lines {
  gsave
    .1 setlinewidth
    0 d_footer_h translate
    /cw d_output_w cols div def
    1 1 cols 1 sub {
      cw mul 0 moveto
      0 d_output_h rlineto stroke
    } for
  grestore
} def

% Column borders.
/column_borders {
  gsave
    .1 setlinewidth
    0 d_footer_h moveto
    0 d_output_h rlineto
    d_output_w 0 rlineto
    0 d_output_h neg rlineto
    closepath stroke
  grestore
} def

% Do the actual underlay drawing
/draw_underlay {
  ul_style 0 eq {
    ul_str true charpath stroke
  } {
    ul_str show
  } ifelse
} def

% Underlay
/underlay {	% - -> -
  gsave
    0 d_page_h translate
    d_page_h neg d_page_w atan rotate

    ul_gray setgray
    ul_font setfont
    /dw d_page_h dup mul d_page_w dup mul add sqrt def
    ul_str stringwidth pop dw exch sub 2 div ul_h_ptsize -2 div moveto
    draw_underlay
  grestore
} def

/user_underlay {	% - -> -
  gsave
    ul_x ul_y translate
    ul_angle rotate
    ul_gray setgray
    ul_font setfont
    0 0 ul_h_ptsize 2 div sub moveto
    draw_underlay
  grestore
} def

% Page prefeed
/page_prefeed {		% bool -> -
  statusdict /prefeed known {
    statusdict exch /prefeed exch put
  } {
    pop
  } ifelse
} def

% Wrapped line markers
/wrapped_line_mark {	% x y charwith charheight type -> -
  /type exch def
  /h exch def
  /w exch def
  /y exch def
  /x exch def

  type 2 eq {
    % Black boxes (like TeX does)
    gsave
      0 setlinewidth
      x w 4 div add y M
      0 h rlineto w 2 div 0 rlineto 0 h neg rlineto
      closepath fill
    grestore
  } {
    type 3 eq {
      % Small arrows
      gsave
        .2 setlinewidth
        x w 2 div add y h 2 div add M
        w 4 div 0 rlineto
        x w 4 div add y lineto stroke

        x w 4 div add w 8 div add y h 4 div add M
        x w 4 div add y lineto
	w 4 div h 8 div rlineto stroke
      grestore
    } {
      % do nothing
    } ifelse
  } ifelse
} def

% EPSF import.

/BeginEPSF {
  /b4_Inc_state save def    		% Save state for cleanup
  /dict_count countdictstack def	% Count objects on dict stack
  /op_count count 1 sub def		% Count objects on operand stack
  userdict begin
  /showpage { } def
  0 setgray 0 setlinecap
  1 setlinewidth 0 setlinejoin
  10 setmiterlimit [ ] 0 setdash newpath
  /languagelevel where {
    pop languagelevel
    1 ne {
      false setstrokeadjust false setoverprint
    } if
  } if
} bind def

/EndEPSF {
  count op_count sub { pos } repeat	% Clean up stacks
  countdictstack dict_count sub { end } repeat
  b4_Inc_state restore
} bind def

% Check PostScript language level.
/languagelevel where {
  pop /gs_languagelevel languagelevel def
} {
  /gs_languagelevel 1 def
} ifelse
%%EndResource
%%BeginResource: procset Enscript-Encoding-88591 1.6 1
/encoding_vector [
/.notdef      	/.notdef      	/.notdef      	/.notdef      	
/.notdef      	/.notdef      	/.notdef      	/.notdef      	
/.notdef      	/.notdef      	/.notdef      	/.notdef      	
/.notdef      	/.notdef      	/.notdef      	/.notdef      	
/.notdef      	/.notdef      	/.notdef      	/.notdef      	
/.notdef      	/.notdef      	/.notdef      	/.notdef      	
/.notdef      	/.notdef      	/.notdef      	/.notdef      	
/.notdef      	/.notdef      	/.notdef      	/.notdef      	
/space        	/exclam       	/quotedbl     	/numbersign   	
/dollar       	/percent      	/ampersand    	/quoteright   	
/parenleft    	/parenright   	/asterisk     	/plus         	
/comma        	/hyphen       	/period       	/slash        	
/zero         	/one          	/two          	/three        	
/four         	/five         	/six          	/seven        	
/eight        	/nine         	/colon        	/semicolon    	
/less         	/equal        	/greater      	/question     	
/at           	/A            	/B            	/C            	
/D            	/E            	/F            	/G            	
/H            	/I            	/J            	/K            	
/L            	/M            	/N            	/O            	
/P            	/Q            	/R            	/S            	
/T            	/U            	/V            	/W            	
/X            	/Y            	/Z            	/bracketleft  	
/backslash    	/bracketright 	/asciicircum  	/underscore   	
/quoteleft    	/a            	/b            	/c            	
/d            	/e            	/f            	/g            	
/h            	/i            	/j            	/k            	
/l            	/m            	/n            	/o            	
/p            	/q            	/r            	/s            	
/t            	/u            	/v            	/w            	
/x            	/y            	/z            	/braceleft    	
/bar          	/braceright   	/tilde        	/.notdef      	
/.notdef      	/.notdef      	/.notdef      	/.notdef      	
/.notdef      	/.notdef      	/.notdef      	/.notdef      	
/.notdef      	/.notdef      	/.notdef      	/.notdef      	
/.notdef      	/.notdef      	/.notdef      	/.notdef      	
/.notdef      	/.notdef      	/.notdef      	/.notdef      	
/.notdef      	/.notdef      	/.notdef      	/.notdef      	
/.notdef      	/.notdef      	/.notdef      	/.notdef      	
/.notdef      	/.notdef      	/.notdef      	/.notdef      	
/space        	/exclamdown   	/cent         	/sterling     	
/currency     	/yen          	/brokenbar    	/section      	
/dieresis     	/copyright    	/ordfeminine  	/guillemotleft	
/logicalnot   	/hyphen       	/registered   	/macron       	
/degree       	/plusminus    	/twosuperior  	/threesuperior	
/acute        	/mu           	/paragraph    	/bullet       	
/cedilla      	/onesuperior  	/ordmasculine 	/guillemotright	
/onequarter   	/onehalf      	/threequarters	/questiondown 	
/Agrave       	/Aacute       	/Acircumflex  	/Atilde       	
/Adieresis    	/Aring        	/AE           	/Ccedilla     	
/Egrave       	/Eacute       	/Ecircumflex  	/Edieresis    	
/Igrave       	/Iacute       	/Icircumflex  	/Idieresis    	
/Eth          	/Ntilde       	/Ograve       	/Oacute       	
/Ocircumflex  	/Otilde       	/Odieresis    	/multiply     	
/Oslash       	/Ugrave       	/Uacute       	/Ucircumflex  	
/Udieresis    	/Yacute       	/Thorn        	/germandbls   	
/agrave       	/aacute       	/acircumflex  	/atilde       	
/adieresis    	/aring        	/ae           	/ccedilla     	
/egrave       	/eacute       	/ecircumflex  	/edieresis    	
/igrave       	/iacute       	/icircumflex  	/idieresis    	
/eth          	/ntilde       	/ograve       	/oacute       	
/ocircumflex  	/otilde       	/odieresis    	/divide       	
/oslash       	/ugrave       	/uacute       	/ucircumflex  	
/udieresis    	/yacute       	/thorn        	/ydieresis    	
] def
%%EndResource
%%EndProlog
%%BeginSetup
%%IncludeResource: font Courier-Bold
%%IncludeResource: font Courier
/HFpt_w 10 def
/HFpt_h 10 def
/Courier-Bold /HF-gs-font MF
/HF /HF-gs-font findfont [HFpt_w 0 0 HFpt_h 0 0] makefont def
/Courier /F-gs-font MF
/F-gs-font 10 10 SF
/#copies 1 def
% Pagedevice definitions:
gs_languagelevel 1 gt {
  <<
    /PageSize [612 792] 
  >> setpagedevice
} if
%%BeginResource: procset Enscript-Header-simple 1.6 1

/do_header {	% print default simple header
  gsave
    d_header_x d_header_y HFpt_h 3 div add translate

    HF setfont
    user_header_p {
      5 0 moveto user_header_left_str show

      d_header_w user_header_center_str stringwidth pop sub 2 div
      0 moveto user_header_center_str show

      d_header_w user_header_right_str stringwidth pop sub 5 sub
      0 moveto user_header_right_str show
    } {
      5 0 moveto fname show
      45 0 rmoveto fmodstr show
      45 0 rmoveto pagenumstr show
    } ifelse

  grestore
} def
%%EndResource
/d_page_w 564 def
/d_page_h 744 def
/d_header_x 0 def
/d_header_y 729 def
/d_header_w 564 def
/d_header_h 15 def
/d_footer_x 0 def
/d_footer_y 0 def
/d_footer_w 564 def
/d_footer_h 0 def
/d_output_w 564 def
/d_output_h 729 def
/cols 1 def
%%EndSetup
%%Page: (1) 1
%%BeginPageSetup
_S
24 24 translate
/pagenum 1 def
/fname (G1.cfg) def
/fdir () def
/ftail (G1.cfg) def
% User defined strings:
/fmodstr (Fri Jan 31 14:43:58 2003) def
/pagenumstr (1) def
/user_header_p false def
%%EndPageSetup
do_header
5 716 M
(/* Fragment of C-grammar for assignments: first version */) s
5 694 M
(z -> l EQL r ) s
5 683 M
(   | r.) s
5 672 M
(l -> STAR r) s
5 661 M
(   | I.) s
5 650 M
(r -> l.) s
_R
S
%%Page: (1) 2
%%BeginPageSetup
_S
24 24 translate
/pagenum 1 def
/fname (G1.nas) def
/fdir () def
/ftail (G1.nas) def
% User defined strings:
/fmodstr (Mon Feb 10 08:35:19 2003) def
/pagenumstr (1) def
/user_header_p false def
%%EndPageSetup
do_header
5 705 M
(Context Free Grammar Vital Statistics Checker \(version 0.00\)) s
5 694 M
(---- Please report bugs and problems to robin@cpsc) s
5 683 M
(===========================================================) s
5 661 M
(Your grammar is:) s
5 628 M
(z ->  l EQL r) s
5 617 M
(    | r.) s
5 595 M
(l ->  STAR r) s
5 584 M
(    | I.) s
5 562 M
(r ->  l.) s
5 529 M
(All nonterminals are reachable and realizable.) s
5 496 M
(There are no nullable nonterminals.) s
5 474 M
(The endable nonterminals are:) s
5 452 M
( l z r.) s
5 430 M
(The grammar has no left recursive nonterminals.) s
5 408 M
(The grammar is not LL\(1\).) s
5 364 M
(The first sets are:) s
5 342 M
(l ====> { STAR I }) s
5 331 M
(z ====> { STAR I }) s
5 320 M
(r ====> { STAR I }) s
5 287 M
(The follow sets are:) s
5 265 M
(l ====> { EQL }) s
5 254 M
(r ====> { EQL }) s
_R
S
%%Page: (1) 3
%%BeginPageSetup
_S
24 24 translate
/pagenum 1 def
/fname (G10.cfg) def
/fdir () def
/ftail (G10.cfg) def
% User defined strings:
/fmodstr (Fri Jan 31 14:43:57 2003) def
/pagenumstr (1) def
/user_header_p false def
%%EndPageSetup
do_header
5 716 M
(/* Example grammar ex 3.5, Appel "Modern Compilern Implementation" ) s
5 705 M
(   -- a sort of TeX grammar!  */) s
5 683 M
(s' -> s.) s
5 661 M
(s -> x s) s
5 650 M
(   |.) s
5 628 M
(x -> b s e) s
5 617 M
(   | LCPAR s RCPAR) s
5 606 M
(   | WORD) s
5 595 M
(   | BEGIN) s
5 584 M
(   | END) s
5 573 M
(   | BACKSLASH WORD.) s
5 551 M
(b -> BACKSLASH BEGIN LCPAR WORD RCPAR.) s
5 529 M
(e -> BACKSLASH END LCPAR WORD RCPAR.) s
_R
S
%%Page: (1) 4
%%BeginPageSetup
_S
24 24 translate
/pagenum 1 def
/fname (G10.nas) def
/fdir () def
/ftail (G10.nas) def
% User defined strings:
/fmodstr (Mon Feb 10 08:35:19 2003) def
/pagenumstr (1) def
/user_header_p false def
%%EndPageSetup
do_header
5 705 M
(Context Free Grammar Vital Statistics Checker \(version 0.00\)) s
5 694 M
(---- Please report bugs and problems to robin@cpsc) s
5 683 M
(===========================================================) s
5 661 M
(Your grammar is:) s
5 628 M
(s' ->  s.) s
5 606 M
(s ->  x s) s
5 595 M
(    |.) s
5 573 M
(x ->  b s e) s
5 562 M
(    | LCPAR s RCPAR) s
5 551 M
(    | WORD) s
5 540 M
(    | BEGIN) s
5 529 M
(    | END) s
5 518 M
(    | BACKSLASH WORD.) s
5 496 M
(b ->  BACKSLASH BEGIN LCPAR WORD RCPAR.) s
5 474 M
(e ->  BACKSLASH END LCPAR WORD RCPAR.) s
5 441 M
(All nonterminals are reachable and realizable.) s
5 408 M
(The nullable nonterminals are:) s
5 386 M
( s s'.) s
5 364 M
(The endable nonterminals are:) s
5 342 M
( e x s' s.) s
5 320 M
(The grammar has no left recursive nonterminals.) s
5 298 M
(The grammar is not LL\(1\).) s
5 254 M
(The first sets are:) s
5 232 M
(x ====> { LCPAR WORD BEGIN END BACKSLASH }) s
5 221 M
(b ====> { BACKSLASH }) s
5 210 M
(e ====> { BACKSLASH }) s
5 199 M
(s ====> { LCPAR WORD BEGIN END BACKSLASH }) s
5 188 M
(s' ====> { LCPAR WORD BEGIN END BACKSLASH }) s
5 155 M
(The follow sets are:) s
5 133 M
(b ====> { LCPAR WORD BEGIN END BACKSLASH }) s
5 122 M
(e ====> { RCPAR LCPAR WORD BEGIN END BACKSLASH }) s
5 111 M
(x ====> { RCPAR LCPAR WORD BEGIN END BACKSLASH }) s
5 100 M
(s ====> { BACKSLASH RCPAR }) s
_R
S
%%Page: (1) 5
%%BeginPageSetup
_S
24 24 translate
/pagenum 1 def
/fname (G11.cfg) def
/fdir () def
/ftail (G11.cfg) def
% User defined strings:
/fmodstr (Fri Jan 31 14:43:58 2003) def
/pagenumstr (1) def
/user_header_p false def
%%EndPageSetup
do_header
5 716 M
(/* Example grammar ex 3.7, Appel "Modern Compilern Implementation" ) s
5 705 M
(   -- this grammar is LL\(2\)  */) s
5 672 M
(s -> g.) s
5 661 M
(g -> p) s
5 650 M
(   | p g.) s
5 639 M
(p -> ID COLON r.) s
5 628 M
(r -> ID r) s
5 617 M
(   |.) s
_R
S
%%Page: (1) 6
%%BeginPageSetup
_S
24 24 translate
/pagenum 1 def
/fname (G11.nas) def
/fdir () def
/ftail (G11.nas) def
% User defined strings:
/fmodstr (Mon Feb 10 08:35:19 2003) def
/pagenumstr (1) def
/user_header_p false def
%%EndPageSetup
do_header
5 705 M
(Context Free Grammar Vital Statistics Checker \(version 0.00\)) s
5 694 M
(---- Please report bugs and problems to robin@cpsc) s
5 683 M
(===========================================================) s
5 661 M
(Your grammar is:) s
5 628 M
(s ->  g.) s
5 606 M
(g ->  p) s
5 595 M
(    | p g.) s
5 573 M
(p ->  ID COLON r.) s
5 551 M
(r ->  ID r) s
5 540 M
(    |.) s
5 507 M
(All nonterminals are reachable and realizable.) s
5 474 M
(The nullable nonterminals are:) s
5 452 M
( r.) s
5 430 M
(The endable nonterminals are:) s
5 408 M
( r p s g.) s
5 386 M
(The grammar has no left recursive nonterminals.) s
5 364 M
(The grammar is not LL\(1\).) s
5 320 M
(The first sets are:) s
5 298 M
(p ====> { ID }) s
5 287 M
(r ====> { ID }) s
5 276 M
(g ====> { ID }) s
5 265 M
(s ====> { ID }) s
5 232 M
(The follow sets are:) s
5 210 M
(r ====> { ID }) s
5 199 M
(p ====> { ID }) s
5 144 M
(===================================================================) s
5 122 M
(                TRANSFORMING THE GRAMMAR) s
5 111 M
(                to remove left factors.) s
5 89 M
(===================================================================) s
5 67 M
(Your grammar is:) s
5 34 M
(s ->  g.) s
5 12 M
(g ->  p fp1.) s
_R
S
%%Page: (2) 7
%%BeginPageSetup
_S
24 24 translate
/pagenum 2 def
/fname (G11.nas) def
/fdir () def
/ftail (G11.nas) def
% User defined strings:
/fmodstr (Mon Feb 10 08:35:19 2003) def
/pagenumstr (2) def
/user_header_p false def
%%EndPageSetup
do_header
5 705 M
(fp1 -> ) s
5 694 M
(      | g.) s
5 672 M
(p ->  ID COLON r.) s
5 650 M
(r ->  ID r) s
5 639 M
(    |.) s
5 606 M
(All nonterminals are reachable and realizable.) s
5 573 M
(The nullable nonterminals are:) s
5 551 M
( fp1 r.) s
5 529 M
(The endable nonterminals are:) s
5 507 M
( r fp1 p s g.) s
5 485 M
(The grammar has no left recursive nonterminals.) s
5 463 M
(The grammar is not LL\(1\).) s
5 419 M
(The first sets are:) s
5 397 M
(p ====> { ID }) s
5 386 M
(r ====> { ID }) s
5 375 M
(g ====> { ID }) s
5 364 M
(s ====> { ID }) s
5 353 M
(fp1 ====> { ID }) s
5 320 M
(The follow sets are:) s
5 298 M
(r ====> { ID }) s
5 287 M
(p ====> { ID }) s
_R
S
%%Page: (1) 8
%%BeginPageSetup
_S
24 24 translate
/pagenum 1 def
/fname (G12.cfg) def
/fdir () def
/ftail (G12.cfg) def
% User defined strings:
/fmodstr (Fri Jan 31 14:43:58 2003) def
/pagenumstr (1) def
/user_header_p false def
%%EndPageSetup
do_header
5 716 M
(/* Example grammar ex 3.14, Appel "Modern Compilern Implementation" ) s
5 705 M
(   -- he claims this is LL\(1\) but not LALR\(1\) ... but is he right?  */) s
5 683 M
(s -> LPAR x) s
5 672 M
(   | e RSPAR) s
5 661 M
(   | f LPAR.) s
5 639 M
(x -> e RPAR) s
5 628 M
(   | f RSPAR.) s
5 606 M
(e -> a.) s
5 595 M
(f -> a.) s
5 584 M
(a -> .) s
_R
S
%%Page: (1) 9
%%BeginPageSetup
_S
24 24 translate
/pagenum 1 def
/fname (G12.nas) def
/fdir () def
/ftail (G12.nas) def
% User defined strings:
/fmodstr (Mon Feb 10 08:35:19 2003) def
/pagenumstr (1) def
/user_header_p false def
%%EndPageSetup
do_header
5 705 M
(Context Free Grammar Vital Statistics Checker \(version 0.00\)) s
5 694 M
(---- Please report bugs and problems to robin@cpsc) s
5 683 M
(===========================================================) s
5 661 M
(Your grammar is:) s
5 628 M
(s ->  LPAR x) s
5 617 M
(    | e RSPAR) s
5 606 M
(    | f LPAR.) s
5 584 M
(x ->  e RPAR) s
5 573 M
(    | f RSPAR.) s
5 551 M
(e ->  a.) s
5 529 M
(f ->  a.) s
5 507 M
(a -> .) s
5 474 M
(All nonterminals are reachable and realizable.) s
5 441 M
(The nullable nonterminals are:) s
5 419 M
( a e f.) s
5 397 M
(The endable nonterminals are:) s
5 375 M
( s x.) s
5 353 M
(The grammar has no left recursive nonterminals.) s
5 331 M
(The grammar is not LL\(1\).) s
5 287 M
(The first sets are:) s
5 265 M
(s ====> { RSPAR LPAR }) s
5 254 M
(x ====> { RPAR RSPAR }) s
5 221 M
(The follow sets are:) s
5 199 M
(f ====> { LPAR RSPAR }) s
5 188 M
(e ====> { RSPAR RPAR }) s
5 177 M
(a ====> { LPAR RSPAR RPAR }) s
_R
S
%%Page: (1) 10
%%BeginPageSetup
_S
24 24 translate
/pagenum 1 def
/fname (G13.cfg) def
/fdir () def
/ftail (G13.cfg) def
% User defined strings:
/fmodstr (Fri Jan 31 14:43:58 2003) def
/pagenumstr (1) def
/user_header_p false def
%%EndPageSetup
do_header
5 716 M
(/*  Example from Dragon book  */) s
5 694 M
(s -> A a b E.) s
5 683 M
(a -> a B C) s
5 672 M
(   | b.) s
5 661 M
(b -> D.) s
_R
S
%%Page: (1) 11
%%BeginPageSetup
_S
24 24 translate
/pagenum 1 def
/fname (G13.nas) def
/fdir () def
/ftail (G13.nas) def
% User defined strings:
/fmodstr (Mon Feb 10 08:35:20 2003) def
/pagenumstr (1) def
/user_header_p false def
%%EndPageSetup
do_header
5 705 M
(Context Free Grammar Vital Statistics Checker \(version 0.00\)) s
5 694 M
(---- Please report bugs and problems to robin@cpsc) s
5 683 M
(===========================================================) s
5 661 M
(Your grammar is:) s
5 628 M
(s ->  A a b E.) s
5 606 M
(a ->  a B C) s
5 595 M
(    | b.) s
5 573 M
(b ->  D.) s
5 540 M
(All nonterminals are reachable and realizable.) s
5 507 M
(There are no nullable nonterminals.) s
5 485 M
(The endable nonterminals are:) s
5 463 M
( s.) s
5 441 M
(The following nonterminals are left recursive:) s
5 430 M
( a) s
5 408 M
(The grammar is not LL\(1\).) s
5 364 M
(The first sets are:) s
5 342 M
(s ====> { A }) s
5 331 M
(b ====> { D }) s
5 320 M
(a ====> { D }) s
5 287 M
(The follow sets are:) s
5 265 M
(a ====> { D B }) s
5 254 M
(b ====> { E D B }) s
5 199 M
(===================================================================) s
5 177 M
(                TRANSFORMING THE GRAMMAR) s
5 166 M
(                to remove left recursion.) s
5 144 M
(===================================================================) s
5 122 M
(Your grammar is:) s
5 89 M
(s ->  A a b E.) s
5 67 M
(a ->  b a+.) s
5 45 M
(a+ ->  B C a+) s
5 34 M
(     |.) s
5 12 M
(b ->  D.) s
_R
S
%%Page: (2) 12
%%BeginPageSetup
_S
24 24 translate
/pagenum 2 def
/fname (G13.nas) def
/fdir () def
/ftail (G13.nas) def
% User defined strings:
/fmodstr (Mon Feb 10 08:35:20 2003) def
/pagenumstr (2) def
/user_header_p false def
%%EndPageSetup
do_header
5 694 M
(All nonterminals are reachable and realizable.) s
5 661 M
(The nullable nonterminals are:) s
5 639 M
( a+.) s
5 617 M
(The endable nonterminals are:) s
5 595 M
( s.) s
5 573 M
(The grammar has no left recursive nonterminals.) s
5 551 M
(The grammar is LL\(1\).) s
5 507 M
(The first sets are:) s
5 485 M
(s ====> { A }) s
5 474 M
(a+ ====> { B }) s
5 463 M
(b ====> { D }) s
5 452 M
(a ====> { D }) s
5 419 M
(The follow sets are:) s
5 397 M
(a ====> { D }) s
5 386 M
(a+ ====> { D }) s
5 375 M
(b ====> { E B D }) s
_R
S
%%Page: (1) 13
%%BeginPageSetup
_S
24 24 translate
/pagenum 1 def
/fname (G14.cfg) def
/fdir () def
/ftail (G14.cfg) def
% User defined strings:
/fmodstr (Fri Jan 31 14:43:58 2003) def
/pagenumstr (1) def
/user_header_p false def
%%EndPageSetup
do_header
5 716 M
(n -> i n'.) s
5 705 M
(n' -> STOP i f) s
5 694 M
(    |.) s
5 683 M
(f -> E SIGN i) s
5 672 M
(   |.) s
5 661 M
(i -> DIGIT i'.) s
5 650 M
(i' -> DIGIT i') s
5 639 M
(    |.) s
_R
S
%%Page: (1) 14
%%BeginPageSetup
_S
24 24 translate
/pagenum 1 def
/fname (G14.nas) def
/fdir () def
/ftail (G14.nas) def
% User defined strings:
/fmodstr (Mon Feb 10 08:35:20 2003) def
/pagenumstr (1) def
/user_header_p false def
%%EndPageSetup
do_header
5 705 M
(Context Free Grammar Vital Statistics Checker \(version 0.00\)) s
5 694 M
(---- Please report bugs and problems to robin@cpsc) s
5 683 M
(===========================================================) s
5 661 M
(Your grammar is:) s
5 628 M
(n ->  i n'.) s
5 606 M
(n' ->  STOP i f) s
5 595 M
(     |.) s
5 573 M
(f ->  E SIGN i) s
5 562 M
(    |.) s
5 540 M
(i ->  DIGIT i'.) s
5 518 M
(i' ->  DIGIT i') s
5 507 M
(     |.) s
5 474 M
(All nonterminals are reachable and realizable.) s
5 441 M
(The nullable nonterminals are:) s
5 419 M
( n' f i'.) s
5 397 M
(The endable nonterminals are:) s
5 375 M
( i' f n n' i.) s
5 353 M
(The grammar has no left recursive nonterminals.) s
5 331 M
(The grammar is LL\(1\).) s
5 287 M
(The first sets are:) s
5 265 M
(n' ====> { STOP }) s
5 254 M
(f ====> { E }) s
5 243 M
(i ====> { DIGIT }) s
5 232 M
(i' ====> { DIGIT }) s
5 221 M
(n ====> { DIGIT }) s
5 188 M
(The follow sets are:) s
5 166 M
(i' ====> { STOP E }) s
5 155 M
(i ====> { STOP E }) s
_R
S
%%Page: (1) 15
%%BeginPageSetup
_S
24 24 translate
/pagenum 1 def
/fname (G15.cfg) def
/fdir () def
/ftail (G15.cfg) def
% User defined strings:
/fmodstr (Fri Jan 31 14:43:58 2003) def
/pagenumstr (1) def
/user_header_p false def
%%EndPageSetup
do_header
5 716 M
(/*  Example 4. of my notes  */) s
5 694 M
(expr -> expr ADD expr) s
5 683 M
(      | term.) s
5 661 M
(term -> term MUL term) s
5 650 M
(      | NUM.) s
_R
S
%%Page: (1) 16
%%BeginPageSetup
_S
24 24 translate
/pagenum 1 def
/fname (G15.nas) def
/fdir () def
/ftail (G15.nas) def
% User defined strings:
/fmodstr (Mon Feb 10 08:35:20 2003) def
/pagenumstr (1) def
/user_header_p false def
%%EndPageSetup
do_header
5 705 M
(Context Free Grammar Vital Statistics Checker \(version 0.00\)) s
5 694 M
(---- Please report bugs and problems to robin@cpsc) s
5 683 M
(===========================================================) s
5 661 M
(Your grammar is:) s
5 628 M
(expr ->  expr ADD expr) s
5 617 M
(       | term.) s
5 595 M
(term ->  term MUL term) s
5 584 M
(       | NUM.) s
5 551 M
(All nonterminals are reachable and realizable.) s
5 518 M
(There are no nullable nonterminals.) s
5 496 M
(The endable nonterminals are:) s
5 474 M
( term expr.) s
5 452 M
(The following nonterminals are left recursive:) s
5 441 M
( expr term) s
5 419 M
(The grammar is not LL\(1\).) s
5 375 M
(The first sets are:) s
5 353 M
(term ====> { NUM }) s
5 342 M
(expr ====> { NUM }) s
5 309 M
(The follow sets are:) s
5 287 M
(term ====> { MUL ADD }) s
5 276 M
(expr ====> { ADD }) s
5 221 M
(===================================================================) s
5 199 M
(                TRANSFORMING THE GRAMMAR) s
5 188 M
(                to remove left recursion.) s
5 166 M
(===================================================================) s
5 144 M
(Your grammar is:) s
5 111 M
(expr ->  term expr+.) s
5 89 M
(expr+ ->  ADD expr expr+) s
5 78 M
(        |.) s
5 56 M
(term ->  NUM term+.) s
5 34 M
(term+ ->  MUL term term+) s
5 23 M
(        |.) s
_R
S
%%Page: (2) 17
%%BeginPageSetup
_S
24 24 translate
/pagenum 2 def
/fname (G15.nas) def
/fdir () def
/ftail (G15.nas) def
% User defined strings:
/fmodstr (Mon Feb 10 08:35:20 2003) def
/pagenumstr (2) def
/user_header_p false def
%%EndPageSetup
do_header
5 705 M
(All nonterminals are reachable and realizable.) s
5 672 M
(The nullable nonterminals are:) s
5 650 M
( expr+ term+.) s
5 628 M
(The endable nonterminals are:) s
5 606 M
( term+ expr expr+ term.) s
5 584 M
(The grammar has no left recursive nonterminals.) s
5 562 M
(The grammar is not LL\(1\).) s
5 518 M
(The first sets are:) s
5 496 M
(expr+ ====> { ADD }) s
5 485 M
(term ====> { NUM }) s
5 474 M
(term+ ====> { MUL }) s
5 463 M
(expr ====> { NUM }) s
5 430 M
(The follow sets are:) s
5 408 M
(term+ ====> { ADD MUL }) s
5 397 M
(expr ====> { ADD }) s
5 386 M
(expr+ ====> { ADD }) s
5 375 M
(term ====> { ADD MUL }) s
_R
S
%%Page: (1) 18
%%BeginPageSetup
_S
24 24 translate
/pagenum 1 def
/fname (G2.cfg) def
/fdir () def
/ftail (G2.cfg) def
% User defined strings:
/fmodstr (Fri Jan 31 14:43:58 2003) def
/pagenumstr (1) def
/user_header_p false def
%%EndPageSetup
do_header
5 716 M
(/* Fragment of C-grammar for assignments: second version */) s
5 694 M
(z -> STAR l EQL l) s
5 683 M
(   | I EQL l) s
5 672 M
(   | STAR l) s
5 661 M
(   | I.) s
5 650 M
(l -> STAR l) s
5 639 M
(   | I.) s
_R
S
%%Page: (1) 19
%%BeginPageSetup
_S
24 24 translate
/pagenum 1 def
/fname (G2.nas) def
/fdir () def
/ftail (G2.nas) def
% User defined strings:
/fmodstr (Mon Feb 10 08:35:20 2003) def
/pagenumstr (1) def
/user_header_p false def
%%EndPageSetup
do_header
5 705 M
(Context Free Grammar Vital Statistics Checker \(version 0.00\)) s
5 694 M
(---- Please report bugs and problems to robin@cpsc) s
5 683 M
(===========================================================) s
5 661 M
(Your grammar is:) s
5 628 M
(z ->  STAR l EQL l) s
5 617 M
(    | I EQL l) s
5 606 M
(    | STAR l) s
5 595 M
(    | I.) s
5 573 M
(l ->  STAR l) s
5 562 M
(    | I.) s
5 529 M
(All nonterminals are reachable and realizable.) s
5 496 M
(There are no nullable nonterminals.) s
5 474 M
(The endable nonterminals are:) s
5 452 M
( z l.) s
5 430 M
(The grammar has no left recursive nonterminals.) s
5 408 M
(The grammar is not LL\(1\).) s
5 364 M
(The first sets are:) s
5 342 M
(z ====> { STAR I }) s
5 331 M
(l ====> { STAR I }) s
5 298 M
(The follow sets are:) s
5 276 M
(l ====> { EQL }) s
5 221 M
(===================================================================) s
5 199 M
(                TRANSFORMING THE GRAMMAR) s
5 188 M
(                to remove left factors.) s
5 166 M
(===================================================================) s
5 144 M
(Your grammar is:) s
5 111 M
(z ->  STAR fSTAR1) s
5 100 M
(    | I fI2.) s
5 78 M
(fSTAR1 ->  l fl3.) s
5 56 M
(fl3 ->  EQL l) s
5 45 M
(      |.) s
5 23 M
(fI2 ->  EQL l) s
5 12 M
(      |.) s
_R
S
%%Page: (2) 20
%%BeginPageSetup
_S
24 24 translate
/pagenum 2 def
/fname (G2.nas) def
/fdir () def
/ftail (G2.nas) def
% User defined strings:
/fmodstr (Mon Feb 10 08:35:20 2003) def
/pagenumstr (2) def
/user_header_p false def
%%EndPageSetup
do_header
5 705 M
(l ->  STAR l) s
5 694 M
(    | I.) s
5 661 M
(All nonterminals are reachable and realizable.) s
5 628 M
(The nullable nonterminals are:) s
5 606 M
( fl3 fI2.) s
5 584 M
(The endable nonterminals are:) s
5 562 M
( fl3 l z fI2 fSTAR1.) s
5 540 M
(The grammar has no left recursive nonterminals.) s
5 518 M
(The grammar is LL\(1\).) s
5 474 M
(The first sets are:) s
5 452 M
(z ====> { STAR I }) s
5 441 M
(fl3 ====> { EQL }) s
5 430 M
(fI2 ====> { EQL }) s
5 419 M
(l ====> { STAR I }) s
5 408 M
(fSTAR1 ====> { STAR I }) s
5 375 M
(The follow sets are:) s
5 353 M
(l ====> { EQL }) s
_R
S
%%Page: (1) 21
%%BeginPageSetup
_S
24 24 translate
/pagenum 1 def
/fname (G3.cfg) def
/fdir () def
/ftail (G3.cfg) def
% User defined strings:
/fmodstr (Fri Jan 31 14:43:58 2003) def
/pagenumstr (1) def
/user_header_p false def
%%EndPageSetup
do_header
5 716 M
(/* Example grammar 3.12, Appel "Modern Compilern Implementation"  */) s
5 694 M
(z -> D) s
5 683 M
(   | x y z.) s
5 661 M
(y -> C) s
5 650 M
(   |.) s
5 628 M
(x -> y) s
5 617 M
(   | A.) s
_R
S
%%Page: (1) 22
%%BeginPageSetup
_S
24 24 translate
/pagenum 1 def
/fname (G3.nas) def
/fdir () def
/ftail (G3.nas) def
% User defined strings:
/fmodstr (Mon Feb 10 08:35:21 2003) def
/pagenumstr (1) def
/user_header_p false def
%%EndPageSetup
do_header
5 705 M
(Context Free Grammar Vital Statistics Checker \(version 0.00\)) s
5 694 M
(---- Please report bugs and problems to robin@cpsc) s
5 683 M
(===========================================================) s
5 661 M
(Your grammar is:) s
5 628 M
(z ->  D) s
5 617 M
(    | x y z.) s
5 595 M
(y ->  C) s
5 584 M
(    |.) s
5 562 M
(x ->  y) s
5 551 M
(    | A.) s
5 518 M
(All nonterminals are reachable and realizable.) s
5 485 M
(The nullable nonterminals are:) s
5 463 M
( y x.) s
5 441 M
(The endable nonterminals are:) s
5 419 M
( z.) s
5 397 M
(The following nonterminals have cyclic derivations:) s
5 386 M
( z) s
5 364 M
(The following nonterminals are left recursive:) s
5 353 M
( z) s
5 331 M
(The grammar is not LL\(1\).) s
5 287 M
(The first sets are:) s
5 265 M
(z ====> { D A C }) s
5 254 M
(y ====> { C }) s
5 243 M
(x ====> { A C }) s
5 210 M
(The follow sets are:) s
5 188 M
(x ====> { D A C }) s
5 177 M
(y ====> { D A C }) s
_R
S
%%Page: (1) 23
%%BeginPageSetup
_S
24 24 translate
/pagenum 1 def
/fname (G4.cfg) def
/fdir () def
/ftail (G4.cfg) def
% User defined strings:
/fmodstr (Fri Jan 31 14:43:58 2003) def
/pagenumstr (1) def
/user_header_p false def
%%EndPageSetup
do_header
5 716 M
(/* Example grammar 3.15, Appel "Modern Compilern Implementation"  ) s
5 705 M
(   \(arithmetic expressions\) */) s
5 683 M
(s -> e.) s
5 661 M
(e -> t e'.) s
5 639 M
(e' -> ADD t e') s
5 628 M
(    | SUB t e') s
5 617 M
(    |.) s
5 595 M
(t -> f t'.) s
5 573 M
(t' -> MUL f t') s
5 562 M
(    | DIV f t') s
5 551 M
(    |.) s
5 529 M
(f -> ID) s
5 518 M
(   | NUM) s
5 507 M
(   | LPAR e RPAR.) s
_R
S
%%Page: (1) 24
%%BeginPageSetup
_S
24 24 translate
/pagenum 1 def
/fname (G4.nas) def
/fdir () def
/ftail (G4.nas) def
% User defined strings:
/fmodstr (Mon Feb 10 08:35:21 2003) def
/pagenumstr (1) def
/user_header_p false def
%%EndPageSetup
do_header
5 705 M
(Context Free Grammar Vital Statistics Checker \(version 0.00\)) s
5 694 M
(---- Please report bugs and problems to robin@cpsc) s
5 683 M
(===========================================================) s
5 661 M
(Your grammar is:) s
5 628 M
(s ->  e.) s
5 606 M
(e ->  t e'.) s
5 584 M
(e' ->  ADD t e') s
5 573 M
(     | SUB t e') s
5 562 M
(     |.) s
5 540 M
(t ->  f t'.) s
5 518 M
(t' ->  MUL f t') s
5 507 M
(     | DIV f t') s
5 496 M
(     |.) s
5 474 M
(f ->  ID) s
5 463 M
(    | NUM) s
5 452 M
(    | LPAR e RPAR.) s
5 419 M
(All nonterminals are reachable and realizable.) s
5 386 M
(The nullable nonterminals are:) s
5 364 M
( e' t'.) s
5 342 M
(The endable nonterminals are:) s
5 320 M
( t' f e' t s e.) s
5 298 M
(The grammar has no left recursive nonterminals.) s
5 276 M
(The grammar is LL\(1\).) s
5 232 M
(The first sets are:) s
5 210 M
(e' ====> { ADD SUB }) s
5 199 M
(t' ====> { MUL DIV }) s
5 188 M
(f ====> { ID NUM LPAR }) s
5 177 M
(t ====> { ID NUM LPAR }) s
5 166 M
(e ====> { ID NUM LPAR }) s
5 155 M
(s ====> { ID NUM LPAR }) s
5 122 M
(The follow sets are:) s
5 100 M
(t' ====> { RPAR ADD SUB }) s
5 89 M
(f ====> { RPAR MUL DIV ADD SUB }) s
5 78 M
(e' ====> { RPAR }) s
5 67 M
(t ====> { RPAR ADD SUB }) s
5 56 M
(e ====> { RPAR }) s
_R
S
%%Page: (1) 25
%%BeginPageSetup
_S
24 24 translate
/pagenum 1 def
/fname (G5.cfg) def
/fdir () def
/ftail (G5.cfg) def
% User defined strings:
/fmodstr (Fri Jan 31 14:43:58 2003) def
/pagenumstr (1) def
/user_header_p false def
%%EndPageSetup
do_header
5 716 M
(/* Example grammar 3.20, Appel "Modern Compiler Implementation"  */) s
5 694 M
(s' -> s.) s
5 683 M
(s -> LPAR l RPAR) s
5 672 M
(   | X.) s
5 650 M
(l -> s) s
5 639 M
(   | l COMMA s.) s
_R
S
%%Page: (1) 26
%%BeginPageSetup
_S
24 24 translate
/pagenum 1 def
/fname (G5.nas) def
/fdir () def
/ftail (G5.nas) def
% User defined strings:
/fmodstr (Mon Feb 10 08:35:21 2003) def
/pagenumstr (1) def
/user_header_p false def
%%EndPageSetup
do_header
5 705 M
(Context Free Grammar Vital Statistics Checker \(version 0.00\)) s
5 694 M
(---- Please report bugs and problems to robin@cpsc) s
5 683 M
(===========================================================) s
5 661 M
(Your grammar is:) s
5 628 M
(s' ->  s.) s
5 606 M
(s ->  LPAR l RPAR) s
5 595 M
(    | X.) s
5 573 M
(l ->  s) s
5 562 M
(    | l COMMA s.) s
5 529 M
(All nonterminals are reachable and realizable.) s
5 496 M
(There are no nullable nonterminals.) s
5 474 M
(The endable nonterminals are:) s
5 452 M
( s' s.) s
5 430 M
(The following nonterminals are left recursive:) s
5 419 M
( l) s
5 397 M
(The grammar is not LL\(1\).) s
5 353 M
(The first sets are:) s
5 331 M
(s ====> { LPAR X }) s
5 320 M
(s' ====> { LPAR X }) s
5 309 M
(l ====> { LPAR X }) s
5 276 M
(The follow sets are:) s
5 254 M
(l ====> { RPAR COMMA }) s
5 243 M
(s ====> { RPAR COMMA }) s
5 188 M
(===================================================================) s
5 166 M
(                TRANSFORMING THE GRAMMAR) s
5 155 M
(                to remove left recursion.) s
5 133 M
(===================================================================) s
5 111 M
(Your grammar is:) s
5 78 M
(s' ->  s.) s
5 56 M
(s ->  LPAR l RPAR) s
5 45 M
(    | X.) s
5 23 M
(l ->  s l+.) s
_R
S
%%Page: (2) 27
%%BeginPageSetup
_S
24 24 translate
/pagenum 2 def
/fname (G5.nas) def
/fdir () def
/ftail (G5.nas) def
% User defined strings:
/fmodstr (Mon Feb 10 08:35:21 2003) def
/pagenumstr (2) def
/user_header_p false def
%%EndPageSetup
do_header
5 716 M
(l+ ->  COMMA s l+) s
5 705 M
(     |.) s
5 672 M
(All nonterminals are reachable and realizable.) s
5 639 M
(The nullable nonterminals are:) s
5 617 M
( l+.) s
5 595 M
(The endable nonterminals are:) s
5 573 M
( s' s.) s
5 551 M
(The grammar has no left recursive nonterminals.) s
5 529 M
(The grammar is LL\(1\).) s
5 485 M
(The first sets are:) s
5 463 M
(s ====> { LPAR X }) s
5 452 M
(l+ ====> { COMMA }) s
5 441 M
(s' ====> { LPAR X }) s
5 430 M
(l ====> { LPAR X }) s
5 397 M
(The follow sets are:) s
5 375 M
(l ====> { RPAR }) s
5 364 M
(l+ ====> { RPAR }) s
5 353 M
(s ====> { COMMA RPAR }) s
_R
S
%%Page: (1) 28
%%BeginPageSetup
_S
24 24 translate
/pagenum 1 def
/fname (G6.cfg) def
/fdir () def
/ftail (G6.cfg) def
% User defined strings:
/fmodstr (Fri Jan 31 14:43:58 2003) def
/pagenumstr (1) def
/user_header_p false def
%%EndPageSetup
do_header
5 716 M
(/* Example grammar 3.26, Appel "Modern Compilern Implementation"  */) s
5 694 M
(s' -> s.) s
5 683 M
(s -> v EQUAL e) s
5 672 M
(   | e.) s
5 650 M
(e -> v.) s
5 639 M
(v -> X) s
5 628 M
(   | STAR e.) s
_R
S
%%Page: (1) 29
%%BeginPageSetup
_S
24 24 translate
/pagenum 1 def
/fname (G6.nas) def
/fdir () def
/ftail (G6.nas) def
% User defined strings:
/fmodstr (Mon Feb 10 08:35:21 2003) def
/pagenumstr (1) def
/user_header_p false def
%%EndPageSetup
do_header
5 705 M
(Context Free Grammar Vital Statistics Checker \(version 0.00\)) s
5 694 M
(---- Please report bugs and problems to robin@cpsc) s
5 683 M
(===========================================================) s
5 661 M
(Your grammar is:) s
5 628 M
(s' ->  s.) s
5 606 M
(s ->  v EQUAL e) s
5 595 M
(    | e.) s
5 573 M
(e ->  v.) s
5 551 M
(v ->  X) s
5 540 M
(    | STAR e.) s
5 507 M
(All nonterminals are reachable and realizable.) s
5 474 M
(There are no nullable nonterminals.) s
5 452 M
(The endable nonterminals are:) s
5 430 M
( v e s' s.) s
5 408 M
(The grammar has no left recursive nonterminals.) s
5 386 M
(The grammar is not LL\(1\).) s
5 342 M
(The first sets are:) s
5 320 M
(v ====> { X STAR }) s
5 309 M
(s ====> { X STAR }) s
5 298 M
(e ====> { X STAR }) s
5 287 M
(s' ====> { X STAR }) s
5 254 M
(The follow sets are:) s
5 232 M
(v ====> { EQUAL }) s
5 221 M
(e ====> { EQUAL }) s
_R
S
%%Page: (1) 30
%%BeginPageSetup
_S
24 24 translate
/pagenum 1 def
/fname (G7.cfg) def
/fdir () def
/ftail (G7.cfg) def
% User defined strings:
/fmodstr (Fri Jan 31 14:43:58 2003) def
/pagenumstr (1) def
/user_header_p false def
%%EndPageSetup
do_header
5 716 M
(/* Example grammar 3.30, Appel "Modern Compilern Implementation"  */) s
5 683 M
(p -> l.) s
5 661 M
(s -> ID ASSIGN ID) s
5 650 M
(   | WHILE ID DO s) s
5 639 M
(   | BEGIN l END) s
5 628 M
(   | IF ID THEN s) s
5 617 M
(   | IF ID THEN s ELSE s.) s
5 595 M
(l -> s) s
5 584 M
(   | l SEMICOLON s.) s
_R
S
%%Page: (1) 31
%%BeginPageSetup
_S
24 24 translate
/pagenum 1 def
/fname (G7.nas) def
/fdir () def
/ftail (G7.nas) def
% User defined strings:
/fmodstr (Mon Feb 10 08:35:22 2003) def
/pagenumstr (1) def
/user_header_p false def
%%EndPageSetup
do_header
5 705 M
(Context Free Grammar Vital Statistics Checker \(version 0.00\)) s
5 694 M
(---- Please report bugs and problems to robin@cpsc) s
5 683 M
(===========================================================) s
5 661 M
(Your grammar is:) s
5 628 M
(p ->  l.) s
5 606 M
(s ->  ID ASSIGN ID) s
5 595 M
(    | WHILE ID DO s) s
5 584 M
(    | BEGIN l END) s
5 573 M
(    | IF ID THEN s) s
5 562 M
(    | IF ID THEN s ELSE s.) s
5 540 M
(l ->  s) s
5 529 M
(    | l SEMICOLON s.) s
5 496 M
(All nonterminals are reachable and realizable.) s
5 463 M
(There are no nullable nonterminals.) s
5 441 M
(The endable nonterminals are:) s
5 419 M
( s p l.) s
5 397 M
(The following nonterminals are left recursive:) s
5 386 M
( l) s
5 364 M
(The grammar is not LL\(1\).) s
5 320 M
(The first sets are:) s
5 298 M
(s ====> { ID WHILE BEGIN IF }) s
5 287 M
(l ====> { ID WHILE BEGIN IF }) s
5 276 M
(p ====> { ID WHILE BEGIN IF }) s
5 243 M
(The follow sets are:) s
5 221 M
(s ====> { ELSE END SEMICOLON }) s
5 210 M
(l ====> { END SEMICOLON }) s
5 155 M
(===================================================================) s
5 133 M
(                TRANSFORMING THE GRAMMAR) s
5 122 M
(                to remove left recursion.) s
5 100 M
(===================================================================) s
5 78 M
(Your grammar is:) s
5 45 M
(p ->  l.) s
5 23 M
(s ->  ID ASSIGN ID) s
5 12 M
(    | WHILE ID DO s) s
_R
S
%%Page: (2) 32
%%BeginPageSetup
_S
24 24 translate
/pagenum 2 def
/fname (G7.nas) def
/fdir () def
/ftail (G7.nas) def
% User defined strings:
/fmodstr (Mon Feb 10 08:35:22 2003) def
/pagenumstr (2) def
/user_header_p false def
%%EndPageSetup
do_header
5 716 M
(    | BEGIN l END) s
5 705 M
(    | IF ID THEN s) s
5 694 M
(    | IF ID THEN s ELSE s.) s
5 672 M
(l ->  s l+.) s
5 650 M
(l+ ->  SEMICOLON s l+) s
5 639 M
(     |.) s
5 606 M
(All nonterminals are reachable and realizable.) s
5 573 M
(The nullable nonterminals are:) s
5 551 M
( l+.) s
5 529 M
(The endable nonterminals are:) s
5 507 M
( l+ s p l.) s
5 485 M
(The grammar has no left recursive nonterminals.) s
5 463 M
(The grammar is not LL\(1\).) s
5 419 M
(The first sets are:) s
5 397 M
(s ====> { ID WHILE BEGIN IF }) s
5 386 M
(l+ ====> { SEMICOLON }) s
5 375 M
(l ====> { ID WHILE BEGIN IF }) s
5 364 M
(p ====> { ID WHILE BEGIN IF }) s
5 331 M
(The follow sets are:) s
5 309 M
(l+ ====> { END }) s
5 298 M
(s ====> { ELSE SEMICOLON END }) s
5 287 M
(l ====> { END }) s
5 232 M
(===================================================================) s
5 210 M
(                TRANSFORMING THE GRAMMAR) s
5 199 M
(                to remove left factors.) s
5 177 M
(===================================================================) s
5 155 M
(Your grammar is:) s
5 122 M
(p ->  l.) s
5 100 M
(s ->  ID ASSIGN ID) s
5 89 M
(    | WHILE ID DO s) s
5 78 M
(    | BEGIN l END) s
5 67 M
(    | IF fIF1.) s
5 45 M
(fIF1 ->  ID fID2.) s
5 23 M
(fID2 ->  THEN fTHEN3.) s
_R
S
%%Page: (3) 33
%%BeginPageSetup
_S
24 24 translate
/pagenum 3 def
/fname (G7.nas) def
/fdir () def
/ftail (G7.nas) def
% User defined strings:
/fmodstr (Mon Feb 10 08:35:22 2003) def
/pagenumstr (3) def
/user_header_p false def
%%EndPageSetup
do_header
5 716 M
(fTHEN3 ->  s fs4.) s
5 694 M
(fs4 -> ) s
5 683 M
(      | ELSE s.) s
5 661 M
(l ->  s l+.) s
5 639 M
(l+ ->  SEMICOLON s l+) s
5 628 M
(     |.) s
5 595 M
(All nonterminals are reachable and realizable.) s
5 562 M
(The nullable nonterminals are:) s
5 540 M
( fs4 l+.) s
5 518 M
(The endable nonterminals are:) s
5 496 M
( l+ fs4 fTHEN3 fID2 fIF1 s p l.) s
5 474 M
(The grammar has no left recursive nonterminals.) s
5 452 M
(The grammar is not LL\(1\).) s
5 408 M
(The first sets are:) s
5 386 M
(s ====> { ID WHILE BEGIN IF }) s
5 375 M
(fIF1 ====> { ID }) s
5 364 M
(fID2 ====> { THEN }) s
5 353 M
(fs4 ====> { ELSE }) s
5 342 M
(l+ ====> { SEMICOLON }) s
5 331 M
(fTHEN3 ====> { ID WHILE BEGIN IF }) s
5 320 M
(l ====> { ID WHILE BEGIN IF }) s
5 309 M
(p ====> { ID WHILE BEGIN IF }) s
5 276 M
(The follow sets are:) s
5 254 M
(l+ ====> { END }) s
5 243 M
(fs4 ====> { ELSE SEMICOLON END }) s
5 232 M
(fTHEN3 ====> { ELSE SEMICOLON END }) s
5 221 M
(fID2 ====> { ELSE SEMICOLON END }) s
5 210 M
(fIF1 ====> { ELSE SEMICOLON END }) s
5 199 M
(s ====> { ELSE SEMICOLON END }) s
5 188 M
(l ====> { END }) s
_R
S
%%Page: (1) 34
%%BeginPageSetup
_S
24 24 translate
/pagenum 1 def
/fname (G8.cfg) def
/fdir () def
/ftail (G8.cfg) def
% User defined strings:
/fmodstr (Fri Jan 31 14:43:58 2003) def
/pagenumstr (1) def
/user_header_p false def
%%EndPageSetup
do_header
5 716 M
(/* Example grammar 3.36, Appel "Modern Compilern Implementation"  */) s
5 694 M
(stm -> ID ASSIGN ae) s
5 683 M
(     | ID ASSIGN be.) s
5 661 M
(be -> be OR be) s
5 650 M
(    | be AND be) s
5 639 M
(    | ae EQUAL ae) s
5 628 M
(    | ID.) s
5 606 M
(ae -> ae PLUS ae ) s
5 595 M
(    | ID.) s
_R
S
%%Page: (1) 35
%%BeginPageSetup
_S
24 24 translate
/pagenum 1 def
/fname (G8.nas) def
/fdir () def
/ftail (G8.nas) def
% User defined strings:
/fmodstr (Mon Feb 10 08:35:22 2003) def
/pagenumstr (1) def
/user_header_p false def
%%EndPageSetup
do_header
5 705 M
(Context Free Grammar Vital Statistics Checker \(version 0.00\)) s
5 694 M
(---- Please report bugs and problems to robin@cpsc) s
5 683 M
(===========================================================) s
5 661 M
(Your grammar is:) s
5 628 M
(stm ->  ID ASSIGN ae) s
5 617 M
(      | ID ASSIGN be.) s
5 595 M
(be ->  be OR be) s
5 584 M
(     | be AND be) s
5 573 M
(     | ae EQUAL ae) s
5 562 M
(     | ID.) s
5 540 M
(ae ->  ae PLUS ae) s
5 529 M
(     | ID.) s
5 496 M
(All nonterminals are reachable and realizable.) s
5 463 M
(There are no nullable nonterminals.) s
5 441 M
(The endable nonterminals are:) s
5 419 M
( stm be ae.) s
5 397 M
(The following nonterminals are left recursive:) s
5 386 M
( be ae) s
5 364 M
(The grammar is not LL\(1\).) s
5 320 M
(The first sets are:) s
5 298 M
(stm ====> { ID }) s
5 287 M
(be ====> { ID }) s
5 276 M
(ae ====> { ID }) s
5 243 M
(The follow sets are:) s
5 221 M
(be ====> { OR AND }) s
5 210 M
(ae ====> { EQUAL PLUS OR AND }) s
5 155 M
(===================================================================) s
5 133 M
(                TRANSFORMING THE GRAMMAR) s
5 122 M
(                to remove left recursion.) s
5 100 M
(===================================================================) s
5 78 M
(Your grammar is:) s
5 45 M
(stm ->  ID ASSIGN ae) s
5 34 M
(      | ID ASSIGN be.) s
5 12 M
(be ->  ae EQUAL ae be+) s
_R
S
%%Page: (2) 36
%%BeginPageSetup
_S
24 24 translate
/pagenum 2 def
/fname (G8.nas) def
/fdir () def
/ftail (G8.nas) def
% User defined strings:
/fmodstr (Mon Feb 10 08:35:22 2003) def
/pagenumstr (2) def
/user_header_p false def
%%EndPageSetup
do_header
5 716 M
(     | ID be+.) s
5 694 M
(be+ ->  OR be be+) s
5 683 M
(      | AND be be+) s
5 672 M
(      |.) s
5 650 M
(ae ->  ID ae+.) s
5 628 M
(ae+ ->  PLUS ae ae+) s
5 617 M
(      |.) s
5 584 M
(All nonterminals are reachable and realizable.) s
5 551 M
(The nullable nonterminals are:) s
5 529 M
( be+ ae+.) s
5 507 M
(The endable nonterminals are:) s
5 485 M
( ae+ be+ stm be ae.) s
5 463 M
(The grammar has no left recursive nonterminals.) s
5 441 M
(The grammar is not LL\(1\).) s
5 397 M
(The first sets are:) s
5 375 M
(stm ====> { ID }) s
5 364 M
(be ====> { ID }) s
5 353 M
(be+ ====> { OR AND }) s
5 342 M
(ae ====> { ID }) s
5 331 M
(ae+ ====> { PLUS }) s
5 298 M
(The follow sets are:) s
5 276 M
(ae+ ====> { EQUAL OR AND PLUS }) s
5 265 M
(be+ ====> { OR AND }) s
5 254 M
(be ====> { OR AND }) s
5 243 M
(ae ====> { EQUAL OR AND PLUS }) s
5 188 M
(===================================================================) s
5 166 M
(                TRANSFORMING THE GRAMMAR) s
5 155 M
(                to remove left factors.) s
5 133 M
(===================================================================) s
5 111 M
(Your grammar is:) s
5 78 M
(stm ->  ID fID1.) s
5 56 M
(fID1 ->  ASSIGN fASSIGN2.) s
5 34 M
(fASSIGN2 ->  ae) s
5 23 M
(           | be.) s
_R
S
%%Page: (3) 37
%%BeginPageSetup
_S
24 24 translate
/pagenum 3 def
/fname (G8.nas) def
/fdir () def
/ftail (G8.nas) def
% User defined strings:
/fmodstr (Mon Feb 10 08:35:22 2003) def
/pagenumstr (3) def
/user_header_p false def
%%EndPageSetup
do_header
5 716 M
(be ->  ae EQUAL ae be+) s
5 705 M
(     | ID be+.) s
5 683 M
(be+ ->  OR be be+) s
5 672 M
(      | AND be be+) s
5 661 M
(      |.) s
5 639 M
(ae ->  ID ae+.) s
5 617 M
(ae+ ->  PLUS ae ae+) s
5 606 M
(      |.) s
5 573 M
(All nonterminals are reachable and realizable.) s
5 540 M
(The nullable nonterminals are:) s
5 518 M
( be+ ae+.) s
5 496 M
(The endable nonterminals are:) s
5 474 M
( ae+ be+ be ae fASSIGN2 stm fID1.) s
5 452 M
(The grammar has no left recursive nonterminals.) s
5 430 M
(The grammar is not LL\(1\).) s
5 386 M
(The first sets are:) s
5 364 M
(stm ====> { ID }) s
5 353 M
(fID1 ====> { ASSIGN }) s
5 342 M
(be ====> { ID }) s
5 331 M
(be+ ====> { OR AND }) s
5 320 M
(ae ====> { ID }) s
5 309 M
(ae+ ====> { PLUS }) s
5 298 M
(fASSIGN2 ====> { ID }) s
5 265 M
(The follow sets are:) s
5 243 M
(ae+ ====> { EQUAL OR AND PLUS }) s
5 232 M
(be+ ====> { OR AND }) s
5 221 M
(be ====> { OR AND }) s
5 210 M
(ae ====> { EQUAL OR AND PLUS }) s
_R
S
%%Page: (1) 38
%%BeginPageSetup
_S
24 24 translate
/pagenum 1 def
/fname (G9.cfg) def
/fdir () def
/ftail (G9.cfg) def
% User defined strings:
/fmodstr (Fri Jan 31 14:43:58 2003) def
/pagenumstr (1) def
/user_header_p false def
%%EndPageSetup
do_header
5 716 M
(/* Example grammar ex3.6, Appel "Modern Compilern Implementation"  */) s
5 694 M
(s -> U b d Z.) s
5 683 M
(b -> b V) s
5 672 M
(   | W.) s
5 661 M
(d -> e f.) s
5 650 M
(e -> Y) s
5 639 M
(   |.) s
5 628 M
(f -> X) s
5 617 M
(   |.) s
_R
S
%%Page: (1) 39
%%BeginPageSetup
_S
24 24 translate
/pagenum 1 def
/fname (G9.nas) def
/fdir () def
/ftail (G9.nas) def
% User defined strings:
/fmodstr (Mon Feb 10 08:35:22 2003) def
/pagenumstr (1) def
/user_header_p false def
%%EndPageSetup
do_header
5 705 M
(Context Free Grammar Vital Statistics Checker \(version 0.00\)) s
5 694 M
(---- Please report bugs and problems to robin@cpsc) s
5 683 M
(===========================================================) s
5 661 M
(Your grammar is:) s
5 628 M
(s ->  U b d Z.) s
5 606 M
(b ->  b V) s
5 595 M
(    | W.) s
5 573 M
(d ->  e f.) s
5 551 M
(e ->  Y) s
5 540 M
(    |.) s
5 518 M
(f ->  X) s
5 507 M
(    |.) s
5 474 M
(All nonterminals are reachable and realizable.) s
5 441 M
(The nullable nonterminals are:) s
5 419 M
( e f d.) s
5 397 M
(The endable nonterminals are:) s
5 375 M
( s.) s
5 353 M
(The following nonterminals are left recursive:) s
5 342 M
( b) s
5 320 M
(The grammar is not LL\(1\).) s
5 276 M
(The first sets are:) s
5 254 M
(s ====> { U }) s
5 243 M
(b ====> { W }) s
5 232 M
(e ====> { Y }) s
5 221 M
(f ====> { X }) s
5 210 M
(d ====> { Y X }) s
5 177 M
(The follow sets are:) s
5 155 M
(d ====> { Z }) s
5 144 M
(f ====> { Z }) s
5 133 M
(e ====> { X Z }) s
5 122 M
(b ====> { Y X Z V }) s
5 67 M
(===================================================================) s
5 45 M
(                TRANSFORMING THE GRAMMAR) s
5 34 M
(                to remove left recursion.) s
5 12 M
(===================================================================) s
_R
S
%%Page: (2) 40
%%BeginPageSetup
_S
24 24 translate
/pagenum 2 def
/fname (G9.nas) def
/fdir () def
/ftail (G9.nas) def
% User defined strings:
/fmodstr (Mon Feb 10 08:35:22 2003) def
/pagenumstr (2) def
/user_header_p false def
%%EndPageSetup
do_header
5 705 M
(Your grammar is:) s
5 672 M
(s ->  U b d Z.) s
5 650 M
(b ->  W b+.) s
5 628 M
(b+ ->  V b+) s
5 617 M
(     |.) s
5 595 M
(d ->  e f.) s
5 573 M
(e ->  Y) s
5 562 M
(    |.) s
5 540 M
(f ->  X) s
5 529 M
(    |.) s
5 496 M
(All nonterminals are reachable and realizable.) s
5 463 M
(The nullable nonterminals are:) s
5 441 M
( b+ e f d.) s
5 419 M
(The endable nonterminals are:) s
5 397 M
( s.) s
5 375 M
(The grammar has no left recursive nonterminals.) s
5 353 M
(The grammar is LL\(1\).) s
5 309 M
(The first sets are:) s
5 287 M
(s ====> { U }) s
5 276 M
(b ====> { W }) s
5 265 M
(b+ ====> { V }) s
5 254 M
(e ====> { Y }) s
5 243 M
(f ====> { X }) s
5 232 M
(d ====> { Y X }) s
5 199 M
(The follow sets are:) s
5 177 M
(d ====> { Z }) s
5 166 M
(f ====> { Z }) s
5 155 M
(e ====> { X Z }) s
5 144 M
(b ====> { Y X Z }) s
5 133 M
(b+ ====> { Y X Z }) s
_R
S
%%Trailer
%%Pages: 40
%%DocumentNeededResources: font Courier-Bold Courier 
%%EOF
