%!PS-Adobe-3.0
%%BoundingBox: 24 24 588 768
%%Title: Enscript Output
%%For: Brett Giles
%%Creator: GNU enscript 1.6.1
%%CreationDate: Wed Feb 12 07:32:50 2003
%%Orientation: Portrait
%%Pages: (atend)
%%DocumentMedia: Letter 612 792 0 () ()
%%DocumentNeededResources: (atend)
%%EndComments
%%BeginProlog
%%BeginResource: procset Enscript-Prolog 1.6 1
%
% Procedures.
%

/_S {	% save current state
  /_s save def
} def
/_R {	% restore from saved state
  _s restore
} def

/S {	% showpage protecting gstate
  gsave
  showpage
  grestore
} bind def

/MF {	% fontname newfontname -> -	make a new encoded font
  /newfontname exch def
  /fontname exch def

  /fontdict fontname findfont def
  /newfont fontdict maxlength dict def

  fontdict {
    exch
    dup /FID eq {
      % skip FID pair
      pop pop
    } {
      % copy to the new font dictionary
      exch newfont 3 1 roll put
    } ifelse
  } forall

  newfont /FontName newfontname put

  % insert only valid encoding vectors
  encoding_vector length 256 eq {
    newfont /Encoding encoding_vector put
  } if

  newfontname newfont definefont pop
} def

/SF { % fontname width height -> -	set a new font
  /height exch def
  /width exch def

  findfont
  [width 0 0 height 0 0] makefont setfont
} def

/SUF { % fontname width height -> -	set a new user font
  /height exch def
  /width exch def

  /F-gs-user-font MF
  /F-gs-user-font width height SF
} def

/M {moveto} bind def
/s {show} bind def

/Box {	% x y w h -> -			define box path
  /d_h exch def /d_w exch def /d_y exch def /d_x exch def
  d_x d_y  moveto
  d_w 0 rlineto
  0 d_h rlineto
  d_w neg 0 rlineto
  closepath
} def

/bgs {	% x y height blskip gray str -> -	show string with bg color
  /str exch def
  /gray exch def
  /blskip exch def
  /height exch def
  /y exch def
  /x exch def

  gsave
    x y blskip sub str stringwidth pop height Box
    gray setgray
    fill
  grestore
  x y M str s
} def

% Highlight bars.
/highlight_bars {	% nlines lineheight output_y_margin gray -> -
  gsave
    setgray
    /ymarg exch def
    /lineheight exch def
    /nlines exch def

    % This 2 is just a magic number to sync highlight lines to text.
    0 d_header_y ymarg sub 2 sub translate

    /cw d_output_w cols div def
    /nrows d_output_h ymarg 2 mul sub lineheight div cvi def

    % for each column
    0 1 cols 1 sub {
      cw mul /xp exch def

      % for each rows
      0 1 nrows 1 sub {
        /rn exch def
        rn lineheight mul neg /yp exch def
        rn nlines idiv 2 mod 0 eq {
	  % Draw highlight bar.  4 is just a magic indentation.
	  xp 4 add yp cw 8 sub lineheight neg Box fill
	} if
      } for
    } for

  grestore
} def

% Line highlight bar.
/line_highlight {	% x y width height gray -> -
  gsave
    /gray exch def
    Box gray setgray fill
  grestore
} def

% Column separator lines.
/column_lines {
  gsave
    .1 setlinewidth
    0 d_footer_h translate
    /cw d_output_w cols div def
    1 1 cols 1 sub {
      cw mul 0 moveto
      0 d_output_h rlineto stroke
    } for
  grestore
} def

% Column borders.
/column_borders {
  gsave
    .1 setlinewidth
    0 d_footer_h moveto
    0 d_output_h rlineto
    d_output_w 0 rlineto
    0 d_output_h neg rlineto
    closepath stroke
  grestore
} def

% Do the actual underlay drawing
/draw_underlay {
  ul_style 0 eq {
    ul_str true charpath stroke
  } {
    ul_str show
  } ifelse
} def

% Underlay
/underlay {	% - -> -
  gsave
    0 d_page_h translate
    d_page_h neg d_page_w atan rotate

    ul_gray setgray
    ul_font setfont
    /dw d_page_h dup mul d_page_w dup mul add sqrt def
    ul_str stringwidth pop dw exch sub 2 div ul_h_ptsize -2 div moveto
    draw_underlay
  grestore
} def

/user_underlay {	% - -> -
  gsave
    ul_x ul_y translate
    ul_angle rotate
    ul_gray setgray
    ul_font setfont
    0 0 ul_h_ptsize 2 div sub moveto
    draw_underlay
  grestore
} def

% Page prefeed
/page_prefeed {		% bool -> -
  statusdict /prefeed known {
    statusdict exch /prefeed exch put
  } {
    pop
  } ifelse
} def

% Wrapped line markers
/wrapped_line_mark {	% x y charwith charheight type -> -
  /type exch def
  /h exch def
  /w exch def
  /y exch def
  /x exch def

  type 2 eq {
    % Black boxes (like TeX does)
    gsave
      0 setlinewidth
      x w 4 div add y M
      0 h rlineto w 2 div 0 rlineto 0 h neg rlineto
      closepath fill
    grestore
  } {
    type 3 eq {
      % Small arrows
      gsave
        .2 setlinewidth
        x w 2 div add y h 2 div add M
        w 4 div 0 rlineto
        x w 4 div add y lineto stroke

        x w 4 div add w 8 div add y h 4 div add M
        x w 4 div add y lineto
	w 4 div h 8 div rlineto stroke
      grestore
    } {
      % do nothing
    } ifelse
  } ifelse
} def

% EPSF import.

/BeginEPSF {
  /b4_Inc_state save def    		% Save state for cleanup
  /dict_count countdictstack def	% Count objects on dict stack
  /op_count count 1 sub def		% Count objects on operand stack
  userdict begin
  /showpage { } def
  0 setgray 0 setlinecap
  1 setlinewidth 0 setlinejoin
  10 setmiterlimit [ ] 0 setdash newpath
  /languagelevel where {
    pop languagelevel
    1 ne {
      false setstrokeadjust false setoverprint
    } if
  } if
} bind def

/EndEPSF {
  count op_count sub { pos } repeat	% Clean up stacks
  countdictstack dict_count sub { end } repeat
  b4_Inc_state restore
} bind def

% Check PostScript language level.
/languagelevel where {
  pop /gs_languagelevel languagelevel def
} {
  /gs_languagelevel 1 def
} ifelse
%%EndResource
%%BeginResource: procset Enscript-Encoding-88591 1.6 1
/encoding_vector [
/.notdef      	/.notdef      	/.notdef      	/.notdef      	
/.notdef      	/.notdef      	/.notdef      	/.notdef      	
/.notdef      	/.notdef      	/.notdef      	/.notdef      	
/.notdef      	/.notdef      	/.notdef      	/.notdef      	
/.notdef      	/.notdef      	/.notdef      	/.notdef      	
/.notdef      	/.notdef      	/.notdef      	/.notdef      	
/.notdef      	/.notdef      	/.notdef      	/.notdef      	
/.notdef      	/.notdef      	/.notdef      	/.notdef      	
/space        	/exclam       	/quotedbl     	/numbersign   	
/dollar       	/percent      	/ampersand    	/quoteright   	
/parenleft    	/parenright   	/asterisk     	/plus         	
/comma        	/hyphen       	/period       	/slash        	
/zero         	/one          	/two          	/three        	
/four         	/five         	/six          	/seven        	
/eight        	/nine         	/colon        	/semicolon    	
/less         	/equal        	/greater      	/question     	
/at           	/A            	/B            	/C            	
/D            	/E            	/F            	/G            	
/H            	/I            	/J            	/K            	
/L            	/M            	/N            	/O            	
/P            	/Q            	/R            	/S            	
/T            	/U            	/V            	/W            	
/X            	/Y            	/Z            	/bracketleft  	
/backslash    	/bracketright 	/asciicircum  	/underscore   	
/quoteleft    	/a            	/b            	/c            	
/d            	/e            	/f            	/g            	
/h            	/i            	/j            	/k            	
/l            	/m            	/n            	/o            	
/p            	/q            	/r            	/s            	
/t            	/u            	/v            	/w            	
/x            	/y            	/z            	/braceleft    	
/bar          	/braceright   	/tilde        	/.notdef      	
/.notdef      	/.notdef      	/.notdef      	/.notdef      	
/.notdef      	/.notdef      	/.notdef      	/.notdef      	
/.notdef      	/.notdef      	/.notdef      	/.notdef      	
/.notdef      	/.notdef      	/.notdef      	/.notdef      	
/.notdef      	/.notdef      	/.notdef      	/.notdef      	
/.notdef      	/.notdef      	/.notdef      	/.notdef      	
/.notdef      	/.notdef      	/.notdef      	/.notdef      	
/.notdef      	/.notdef      	/.notdef      	/.notdef      	
/space        	/exclamdown   	/cent         	/sterling     	
/currency     	/yen          	/brokenbar    	/section      	
/dieresis     	/copyright    	/ordfeminine  	/guillemotleft	
/logicalnot   	/hyphen       	/registered   	/macron       	
/degree       	/plusminus    	/twosuperior  	/threesuperior	
/acute        	/mu           	/paragraph    	/bullet       	
/cedilla      	/onesuperior  	/ordmasculine 	/guillemotright	
/onequarter   	/onehalf      	/threequarters	/questiondown 	
/Agrave       	/Aacute       	/Acircumflex  	/Atilde       	
/Adieresis    	/Aring        	/AE           	/Ccedilla     	
/Egrave       	/Eacute       	/Ecircumflex  	/Edieresis    	
/Igrave       	/Iacute       	/Icircumflex  	/Idieresis    	
/Eth          	/Ntilde       	/Ograve       	/Oacute       	
/Ocircumflex  	/Otilde       	/Odieresis    	/multiply     	
/Oslash       	/Ugrave       	/Uacute       	/Ucircumflex  	
/Udieresis    	/Yacute       	/Thorn        	/germandbls   	
/agrave       	/aacute       	/acircumflex  	/atilde       	
/adieresis    	/aring        	/ae           	/ccedilla     	
/egrave       	/eacute       	/ecircumflex  	/edieresis    	
/igrave       	/iacute       	/icircumflex  	/idieresis    	
/eth          	/ntilde       	/ograve       	/oacute       	
/ocircumflex  	/otilde       	/odieresis    	/divide       	
/oslash       	/ugrave       	/uacute       	/ucircumflex  	
/udieresis    	/yacute       	/thorn        	/ydieresis    	
] def
%%EndResource
%%EndProlog
%%BeginSetup
%%IncludeResource: font Courier-Bold
%%IncludeResource: font Courier
/HFpt_w 10 def
/HFpt_h 10 def
/Courier-Bold /HF-gs-font MF
/HF /HF-gs-font findfont [HFpt_w 0 0 HFpt_h 0 0] makefont def
/Courier /F-gs-font MF
/F-gs-font 10 10 SF
/#copies 1 def
% Pagedevice definitions:
gs_languagelevel 1 gt {
  <<
    /PageSize [612 792] 
  >> setpagedevice
} if
%%BeginResource: procset Enscript-Header-simple 1.6 1

/do_header {	% print default simple header
  gsave
    d_header_x d_header_y HFpt_h 3 div add translate

    HF setfont
    user_header_p {
      5 0 moveto user_header_left_str show

      d_header_w user_header_center_str stringwidth pop sub 2 div
      0 moveto user_header_center_str show

      d_header_w user_header_right_str stringwidth pop sub 5 sub
      0 moveto user_header_right_str show
    } {
      5 0 moveto fname show
      45 0 rmoveto fmodstr show
      45 0 rmoveto pagenumstr show
    } ifelse

  grestore
} def
%%EndResource
/d_page_w 564 def
/d_page_h 744 def
/d_header_x 0 def
/d_header_y 729 def
/d_header_w 564 def
/d_header_h 15 def
/d_footer_x 0 def
/d_footer_y 0 def
/d_footer_w 564 def
/d_footer_h 0 def
/d_output_w 564 def
/d_output_h 729 def
/cols 1 def
%%EndSetup
%%Page: (1) 1
%%BeginPageSetup
_S
24 24 translate
/pagenum 1 def
/fname (lisp3.ans) def
/fdir () def
/ftail (lisp3.ans) def
% User defined strings:
/fmodstr (Wed Feb 12 07:32:37 2003) def
/pagenumstr (1) def
/user_header_p false def
%%EndPageSetup
do_header
5 705 M
(Context Free Grammar Vital Statistics Checker \(version 0.00\)) s
5 694 M
(---- Please report bugs and problems to robin@cpsc) s
5 683 M
(===========================================================) s
5 661 M
(Your grammar is:) s
5 628 M
(s_expression ->  atomic_symbol) s
5 617 M
(               | LPAR s_expression end_s_expression RPAR.) s
5 595 M
(end_s_expression ->  DOT s_expression) s
5 584 M
(                   | DASH s_expressions.) s
5 562 M
(s_expressions ->  s_expressions DOT s_expression) s
5 551 M
(                |.) s
5 529 M
(atomic_symbol ->  LETTER atom_part.) s
5 507 M
(atom_part ->  LETTER atom_part) s
5 496 M
(            | NUMBER atom_part) s
5 485 M
(            |.) s
5 452 M
(All nonterminals are reachable and realizable.) s
5 419 M
(The nullable nonterminals are:) s
5 397 M
( s_expressions atom_part.) s
5 375 M
(The endable nonterminals are:) s
5 353 M
( atom_part s_expression atomic_symbol.) s
5 331 M
(The following nonterminals are left recursive:) s
5 320 M
( s_expressions) s
5 298 M
(The grammar is not LL\(1\).) s
5 254 M
(The first sets are:) s
5 232 M
(s_expression ====> { LPAR LETTER }) s
5 221 M
(end_s_expression ====> { DOT DASH }) s
5 210 M
(s_expressions ====> { DOT }) s
5 199 M
(atomic_symbol ====> { LETTER }) s
5 188 M
(atom_part ====> { LETTER NUMBER }) s
5 155 M
(The follow sets are:) s
5 133 M
(atom_part ====> { RPAR DOT DASH }) s
5 122 M
(end_s_expression ====> { RPAR }) s
5 111 M
(s_expressions ====> { DOT RPAR }) s
5 100 M
(s_expression ====> { RPAR DOT DASH }) s
5 89 M
(atomic_symbol ====> { RPAR DOT DASH }) s
5 34 M
(===================================================================) s
5 12 M
(                TRANSFORMING THE GRAMMAR) s
_R
S
%%Page: (2) 2
%%BeginPageSetup
_S
24 24 translate
/pagenum 2 def
/fname (lisp3.ans) def
/fdir () def
/ftail (lisp3.ans) def
% User defined strings:
/fmodstr (Wed Feb 12 07:32:37 2003) def
/pagenumstr (2) def
/user_header_p false def
%%EndPageSetup
do_header
5 716 M
(                to remove left recursion.) s
5 694 M
(===================================================================) s
5 672 M
(Your grammar is:) s
5 639 M
(s_expression ->  atomic_symbol) s
5 628 M
(               | LPAR s_expression end_s_expression RPAR.) s
5 606 M
(end_s_expression ->  DOT s_expression) s
5 595 M
(                   | DASH s_expressions.) s
5 573 M
(s_expressions ->  s_expressions+.) s
5 551 M
(s_expressions+ ->  DOT s_expression s_expressions+) s
5 540 M
(                 |.) s
5 518 M
(atomic_symbol ->  LETTER atom_part.) s
5 496 M
(atom_part ->  LETTER atom_part) s
5 485 M
(            | NUMBER atom_part) s
5 474 M
(            |.) s
5 441 M
(All nonterminals are reachable and realizable.) s
5 408 M
(The nullable nonterminals are:) s
5 386 M
( s_expressions+ atom_part s_expressions.) s
5 364 M
(The endable nonterminals are:) s
5 342 M
( atom_part s_expression atomic_symbol.) s
5 320 M
(The grammar has no left recursive nonterminals.) s
5 298 M
(The grammar is LL\(1\).) s
5 254 M
(The first sets are:) s
5 232 M
(s_expression ====> { LPAR LETTER }) s
5 221 M
(end_s_expression ====> { DOT DASH }) s
5 210 M
(s_expressions+ ====> { DOT }) s
5 199 M
(atomic_symbol ====> { LETTER }) s
5 188 M
(atom_part ====> { LETTER NUMBER }) s
5 177 M
(s_expressions ====> { DOT }) s
5 144 M
(The follow sets are:) s
5 122 M
(atom_part ====> { RPAR DASH DOT }) s
5 111 M
(s_expressions+ ====> { RPAR }) s
5 100 M
(end_s_expression ====> { RPAR }) s
5 89 M
(s_expressions ====> { RPAR }) s
5 78 M
(s_expression ====> { RPAR DASH DOT }) s
5 67 M
(atomic_symbol ====> { RPAR DASH DOT }) s
_R
S
%%Trailer
%%Pages: 2
%%DocumentNeededResources: font Courier-Bold Courier 
%%EOF
