%!PS-Adobe-3.0
%%BoundingBox: 24 24 588 768
%%Title: Enscript Output
%%For: Brett Giles
%%Creator: GNU enscript 1.6.1
%%CreationDate: Tue Mar 26 16:26:41 2002
%%Orientation: Portrait
%%Pages: (atend)
%%DocumentMedia: Letter 612 792 0 () ()
%%DocumentNeededResources: (atend)
%%EndComments
%%BeginProlog
%%BeginResource: procset Enscript-Prolog 1.6 1
%
% Procedures.
%

/_S {	% save current state
  /_s save def
} def
/_R {	% restore from saved state
  _s restore
} def

/S {	% showpage protecting gstate
  gsave
  showpage
  grestore
} bind def

/MF {	% fontname newfontname -> -	make a new encoded font
  /newfontname exch def
  /fontname exch def

  /fontdict fontname findfont def
  /newfont fontdict maxlength dict def

  fontdict {
    exch
    dup /FID eq {
      % skip FID pair
      pop pop
    } {
      % copy to the new font dictionary
      exch newfont 3 1 roll put
    } ifelse
  } forall

  newfont /FontName newfontname put

  % insert only valid encoding vectors
  encoding_vector length 256 eq {
    newfont /Encoding encoding_vector put
  } if

  newfontname newfont definefont pop
} def

/SF { % fontname width height -> -	set a new font
  /height exch def
  /width exch def

  findfont
  [width 0 0 height 0 0] makefont setfont
} def

/SUF { % fontname width height -> -	set a new user font
  /height exch def
  /width exch def

  /F-gs-user-font MF
  /F-gs-user-font width height SF
} def

/M {moveto} bind def
/s {show} bind def

/Box {	% x y w h -> -			define box path
  /d_h exch def /d_w exch def /d_y exch def /d_x exch def
  d_x d_y  moveto
  d_w 0 rlineto
  0 d_h rlineto
  d_w neg 0 rlineto
  closepath
} def

/bgs {	% x y height blskip gray str -> -	show string with bg color
  /str exch def
  /gray exch def
  /blskip exch def
  /height exch def
  /y exch def
  /x exch def

  gsave
    x y blskip sub str stringwidth pop height Box
    gray setgray
    fill
  grestore
  x y M str s
} def

% Highlight bars.
/highlight_bars {	% nlines lineheight output_y_margin gray -> -
  gsave
    setgray
    /ymarg exch def
    /lineheight exch def
    /nlines exch def

    % This 2 is just a magic number to sync highlight lines to text.
    0 d_header_y ymarg sub 2 sub translate

    /cw d_output_w cols div def
    /nrows d_output_h ymarg 2 mul sub lineheight div cvi def

    % for each column
    0 1 cols 1 sub {
      cw mul /xp exch def

      % for each rows
      0 1 nrows 1 sub {
        /rn exch def
        rn lineheight mul neg /yp exch def
        rn nlines idiv 2 mod 0 eq {
	  % Draw highlight bar.  4 is just a magic indentation.
	  xp 4 add yp cw 8 sub lineheight neg Box fill
	} if
      } for
    } for

  grestore
} def

% Line highlight bar.
/line_highlight {	% x y width height gray -> -
  gsave
    /gray exch def
    Box gray setgray fill
  grestore
} def

% Column separator lines.
/column_lines {
  gsave
    .1 setlinewidth
    0 d_footer_h translate
    /cw d_output_w cols div def
    1 1 cols 1 sub {
      cw mul 0 moveto
      0 d_output_h rlineto stroke
    } for
  grestore
} def

% Column borders.
/column_borders {
  gsave
    .1 setlinewidth
    0 d_footer_h moveto
    0 d_output_h rlineto
    d_output_w 0 rlineto
    0 d_output_h neg rlineto
    closepath stroke
  grestore
} def

% Do the actual underlay drawing
/draw_underlay {
  ul_style 0 eq {
    ul_str true charpath stroke
  } {
    ul_str show
  } ifelse
} def

% Underlay
/underlay {	% - -> -
  gsave
    0 d_page_h translate
    d_page_h neg d_page_w atan rotate

    ul_gray setgray
    ul_font setfont
    /dw d_page_h dup mul d_page_w dup mul add sqrt def
    ul_str stringwidth pop dw exch sub 2 div ul_h_ptsize -2 div moveto
    draw_underlay
  grestore
} def

/user_underlay {	% - -> -
  gsave
    ul_x ul_y translate
    ul_angle rotate
    ul_gray setgray
    ul_font setfont
    0 0 ul_h_ptsize 2 div sub moveto
    draw_underlay
  grestore
} def

% Page prefeed
/page_prefeed {		% bool -> -
  statusdict /prefeed known {
    statusdict exch /prefeed exch put
  } {
    pop
  } ifelse
} def

% Wrapped line markers
/wrapped_line_mark {	% x y charwith charheight type -> -
  /type exch def
  /h exch def
  /w exch def
  /y exch def
  /x exch def

  type 2 eq {
    % Black boxes (like TeX does)
    gsave
      0 setlinewidth
      x w 4 div add y M
      0 h rlineto w 2 div 0 rlineto 0 h neg rlineto
      closepath fill
    grestore
  } {
    type 3 eq {
      % Small arrows
      gsave
        .2 setlinewidth
        x w 2 div add y h 2 div add M
        w 4 div 0 rlineto
        x w 4 div add y lineto stroke

        x w 4 div add w 8 div add y h 4 div add M
        x w 4 div add y lineto
	w 4 div h 8 div rlineto stroke
      grestore
    } {
      % do nothing
    } ifelse
  } ifelse
} def

% EPSF import.

/BeginEPSF {
  /b4_Inc_state save def    		% Save state for cleanup
  /dict_count countdictstack def	% Count objects on dict stack
  /op_count count 1 sub def		% Count objects on operand stack
  userdict begin
  /showpage { } def
  0 setgray 0 setlinecap
  1 setlinewidth 0 setlinejoin
  10 setmiterlimit [ ] 0 setdash newpath
  /languagelevel where {
    pop languagelevel
    1 ne {
      false setstrokeadjust false setoverprint
    } if
  } if
} bind def

/EndEPSF {
  count op_count sub { pos } repeat	% Clean up stacks
  countdictstack dict_count sub { end } repeat
  b4_Inc_state restore
} bind def

% Check PostScript language level.
/languagelevel where {
  pop /gs_languagelevel languagelevel def
} {
  /gs_languagelevel 1 def
} ifelse
%%EndResource
%%BeginResource: procset Enscript-Encoding-88591 1.6 1
/encoding_vector [
/.notdef      	/.notdef      	/.notdef      	/.notdef      	
/.notdef      	/.notdef      	/.notdef      	/.notdef      	
/.notdef      	/.notdef      	/.notdef      	/.notdef      	
/.notdef      	/.notdef      	/.notdef      	/.notdef      	
/.notdef      	/.notdef      	/.notdef      	/.notdef      	
/.notdef      	/.notdef      	/.notdef      	/.notdef      	
/.notdef      	/.notdef      	/.notdef      	/.notdef      	
/.notdef      	/.notdef      	/.notdef      	/.notdef      	
/space        	/exclam       	/quotedbl     	/numbersign   	
/dollar       	/percent      	/ampersand    	/quoteright   	
/parenleft    	/parenright   	/asterisk     	/plus         	
/comma        	/hyphen       	/period       	/slash        	
/zero         	/one          	/two          	/three        	
/four         	/five         	/six          	/seven        	
/eight        	/nine         	/colon        	/semicolon    	
/less         	/equal        	/greater      	/question     	
/at           	/A            	/B            	/C            	
/D            	/E            	/F            	/G            	
/H            	/I            	/J            	/K            	
/L            	/M            	/N            	/O            	
/P            	/Q            	/R            	/S            	
/T            	/U            	/V            	/W            	
/X            	/Y            	/Z            	/bracketleft  	
/backslash    	/bracketright 	/asciicircum  	/underscore   	
/quoteleft    	/a            	/b            	/c            	
/d            	/e            	/f            	/g            	
/h            	/i            	/j            	/k            	
/l            	/m            	/n            	/o            	
/p            	/q            	/r            	/s            	
/t            	/u            	/v            	/w            	
/x            	/y            	/z            	/braceleft    	
/bar          	/braceright   	/tilde        	/.notdef      	
/.notdef      	/.notdef      	/.notdef      	/.notdef      	
/.notdef      	/.notdef      	/.notdef      	/.notdef      	
/.notdef      	/.notdef      	/.notdef      	/.notdef      	
/.notdef      	/.notdef      	/.notdef      	/.notdef      	
/.notdef      	/.notdef      	/.notdef      	/.notdef      	
/.notdef      	/.notdef      	/.notdef      	/.notdef      	
/.notdef      	/.notdef      	/.notdef      	/.notdef      	
/.notdef      	/.notdef      	/.notdef      	/.notdef      	
/space        	/exclamdown   	/cent         	/sterling     	
/currency     	/yen          	/brokenbar    	/section      	
/dieresis     	/copyright    	/ordfeminine  	/guillemotleft	
/logicalnot   	/hyphen       	/registered   	/macron       	
/degree       	/plusminus    	/twosuperior  	/threesuperior	
/acute        	/mu           	/paragraph    	/bullet       	
/cedilla      	/onesuperior  	/ordmasculine 	/guillemotright	
/onequarter   	/onehalf      	/threequarters	/questiondown 	
/Agrave       	/Aacute       	/Acircumflex  	/Atilde       	
/Adieresis    	/Aring        	/AE           	/Ccedilla     	
/Egrave       	/Eacute       	/Ecircumflex  	/Edieresis    	
/Igrave       	/Iacute       	/Icircumflex  	/Idieresis    	
/Eth          	/Ntilde       	/Ograve       	/Oacute       	
/Ocircumflex  	/Otilde       	/Odieresis    	/multiply     	
/Oslash       	/Ugrave       	/Uacute       	/Ucircumflex  	
/Udieresis    	/Yacute       	/Thorn        	/germandbls   	
/agrave       	/aacute       	/acircumflex  	/atilde       	
/adieresis    	/aring        	/ae           	/ccedilla     	
/egrave       	/eacute       	/ecircumflex  	/edieresis    	
/igrave       	/iacute       	/icircumflex  	/idieresis    	
/eth          	/ntilde       	/ograve       	/oacute       	
/ocircumflex  	/otilde       	/odieresis    	/divide       	
/oslash       	/ugrave       	/uacute       	/ucircumflex  	
/udieresis    	/yacute       	/thorn        	/ydieresis    	
] def
%%EndResource
%%EndProlog
%%BeginSetup
%%IncludeResource: font Courier-Bold
%%IncludeResource: font Courier
/HFpt_w 10 def
/HFpt_h 10 def
/Courier-Bold /HF-gs-font MF
/HF /HF-gs-font findfont [HFpt_w 0 0 HFpt_h 0 0] makefont def
/Courier /F-gs-font MF
/F-gs-font 10 10 SF
/#copies 1 def
% Pagedevice definitions:
gs_languagelevel 1 gt {
  <<
    /PageSize [612 792] 
  >> setpagedevice
} if
%%BeginResource: procset Enscript-Header-simple 1.6 1

/do_header {	% print default simple header
  gsave
    d_header_x d_header_y HFpt_h 3 div add translate

    HF setfont
    user_header_p {
      5 0 moveto user_header_left_str show

      d_header_w user_header_center_str stringwidth pop sub 2 div
      0 moveto user_header_center_str show

      d_header_w user_header_right_str stringwidth pop sub 5 sub
      0 moveto user_header_right_str show
    } {
      5 0 moveto fname show
      45 0 rmoveto fmodstr show
      45 0 rmoveto pagenumstr show
    } ifelse

  grestore
} def
%%EndResource
/d_page_w 564 def
/d_page_h 744 def
/d_header_x 0 def
/d_header_y 729 def
/d_header_w 564 def
/d_header_h 15 def
/d_footer_x 0 def
/d_footer_y 0 def
/d_footer_w 564 def
/d_footer_h 0 def
/d_output_w 564 def
/d_output_h 729 def
/cols 1 def
%%EndSetup
%%Page: (1) 1
%%BeginPageSetup
_S
24 24 translate
/pagenum 1 def
/fname (st.py) def
/fdir () def
/ftail (st.py) def
% User defined strings:
/fmodstr (Tue Mar 26 12:27:31 2002) def
/pagenumstr (1) def
/user_header_p false def
%%EndPageSetup
do_header
5 705 M
(stab=[ {"vars":2,"args":0,"dict":{ "x":\("var","int",1\),) s
5 694 M
(             "f":\("fun",["int","int"],"int",'code_label_f'\),) s
5 683 M
(             "v":\("var","int",2\)}},) s
5 672 M
(     {"vars":1,"args":2,"dict":{ "y":\("var","int",-5\),) s
5 661 M
(             "z":\("var","int",-4\),) s
5 650 M
(             "x":\("var","int",1\),) s
5 639 M
(             "g":\("fun",["int","int"],"int","code_label_g"\)}}, ) s
5 628 M
(    {"vars":1,"args":2,"dict":{ "a":\("var","int",-5\),) s
5 617 M
(             "b":\("var","int",-4\),) s
5 606 M
(             "y":\("var","int",1\)}}) s
5 595 M
(    ]) s
5 573 M
(def lookup\(symt, lk\):) s
5 562 M
(      for level in range\(len\(symt\)-1,-1,-1\):) s
5 551 M
(            if symt[level]["dict"].has_key\(lk\):) s
5 540 M
(                  if symt[level]["dict"][lk][0] == "var":) s
5 529 M
(                        return \(level, symt[level]["dict"][lk][1],symt[level]["dict"][lk][2]) s
5 518 M
(\)) s
5 507 M
(                  else:) s
5 496 M
(                         return \(level, symt[level]["dict"][lk][1],symt[level]["dict"][lk][2) s
5 485 M
(],symt[level]["dict"][lk][3]\)) s
5 452 M
(def insert\(symt,symv\):) s
5 441 M
(      '''Does not handle overloading!, symv=\('var'|'arg',symname,type\) or) s
5 430 M
(      \('fun',symname,arglisttypes,type\)''') s
5 419 M
(      symentry=symt[len\(symt\)-1] # ease of use) s
5 408 M
(      if symentry['dict'].has_key\(symv[1]\):) s
5 397 M
(            raise "Duplicate error") s
5 386 M
(      if symv[0] == 'arg': #nb, requires reversing order of args as passed in.) s
5 375 M
(            symentry['dict'][symv[1]]=\('var',-\(4+symentry['args']\),symv[2]\)) s
5 364 M
(            symentry['args']+=1) s
5 353 M
(      if symv[0] == 'var':) s
5 342 M
(            symentry['vars']+=1) s
5 331 M
(            symentry['dict'][symv[1]]=\('var',symentry['vars'],symv[2]\)) s
5 320 M
(      if symv[0] == 'fun':) s
5 309 M
(            symentry['dict'][symv[1]]=\('fun',symv[2],symv[3],getlabel\( symv[1]\)\)) s
5 276 M
(def getlabel\(s\):) s
5 265 M
(      return s) s
_R
S
%%Page: (1) 2
%%BeginPageSetup
_S
24 24 translate
/pagenum 1 def
/fname (symbol-table.py) def
/fdir () def
/ftail (symbol-table.py) def
% User defined strings:
/fmodstr (Tue Mar 26 12:28:11 2002) def
/pagenumstr (1) def
/user_header_p false def
%%EndPageSetup
do_header
5 716 M
(#timestamp <0326-12:28>) s
5 705 M
(WORK in PROGRESS - check back for updates) s
5 694 M
(Commented pieces\(#\) are Dr. Cockett's original document. Uncommentd are my) s
5 683 M
(      additions and changes.) s
5 672 M
(      CPSC411 -- The symbol table) s
5 650 M
(#Author: Robin Cockett) s
5 639 M
(#Date: March 10, 2002) s
5 628 M
(#) s
5 617 M
(#%%%%%%%%%%%%%%%%%%%%%%%%%%%%%%%%%%%%%%%%%%%%%%%%%%%%%%%%%%%%%%%%%%%%) s
5 606 M
(#) s
5 595 M
(#Dragon book: Symbol Tables 7.6 \(429-440\)) s
5 584 M
(#) s
5 573 M
(#A symbol table is for storing the information associated with the various ) s
5 562 M
(#symbols used in the language.  It is the main \(inherited\) attribute after ) s
5 551 M
(#the parse stage which is used in creating the intermediate representation.) s
5 540 M
(#The symbol table can also be useful in the lexical analysis stage to ) s
5 529 M
(#disambiguate tokens; this in turn can make the parsers job considerably ) s
5 518 M
(#easier.) s
5 507 M
(#) s
5 496 M
(#There are three main functions a symbol table must implement:) s
5 485 M
(#) s
5 474 M
(#         insert  -  inserting a newly introduced variable or function ) s
5 463 M
(#                    name into the table with its required attributes.) s
5 452 M
(#         lookup  -  looking up the attributes associated with a name.) s
5 441 M
(#         delete  -  removing items from the symbol table whose declarations) s
5 430 M
(#                    are no longer visible.) s
5 419 M
(#) s
5 408 M
(#) s
5 397 M
(#Basic symbol table) s
5 386 M
(#------------------) s
5 375 M
(#) s
5 364 M
(#A basic implementation of a symbol table is as a linear list.  Each item of ) s
5 353 M
(#the list is a pair: the name \(a string\) and an associated attribute \(the ) s
5 342 M
(#type of the symbol and any other attributes one may need to know for code ) s
5 331 M
(#generation\).) s
5 320 M
(#) s
5 309 M
(#This is a simple approach with a constant time insertion but a lookup ) s
5 298 M
(#\(and possibly deletion\) time in the worst case proportional to the number ) s
5 287 M
(#of elements in the list.   ) s
5 276 M
(#) s
5 265 M
(#More sophisticated implementations may use binary trees, AVL-trees, or ) s
5 254 M
(#\(most usually\) hash tables to improve the look up time.  If you use a hash ) s
5 243 M
(#table ensure that the hashing function is suitable for the sorts of variable ) s
5 232 M
(#names which are used in programming languages \(or else you will get an ) s
5 221 M
(#abnormal number of collisions\).) s
5 210 M
(#) s
5 199 M
(#In addition it may be useful to have a header for the symbol table where ) s
5 188 M
(#attributes of the whole table can be stored \(for example the current free ) s
5 177 M
(#offset, what it is the symbol table for \(e.g. main, function, or block\).) s
5 166 M
(#) s
5 155 M
(#) s
5 144 M
(#Handling Scope) s
5 133 M
(#--------------) s
5 122 M
(#) s
5 111 M
(#When a variable is declared that delaration is only visible in the ) s
5 100 M
(#body associated with the declaration.  Furthermore, a declaration ) s
5 89 M
(#in a subblock of a symbol with the same name as a symbol decared in an ) s
5 78 M
(#enclosing block will supercede the original meaning of the symbol in ) s
5 67 M
(#the enclosing block.  Thus, the inner declaration punches a hole in the ) s
5 56 M
(#scope of the inner declaration. A symbol table should be able to handle ) s
5 45 M
(#these scope issues.  In particular, as one leaves the scope of a ) s
5 34 M
(#definition one should be able to "delete" the symbols introduced in ) s
5 23 M
(#that inner scope easily.) s
5 12 M
(#) s
_R
S
%%Page: (2) 3
%%BeginPageSetup
_S
24 24 translate
/pagenum 2 def
/fname (symbol-table.py) def
/fdir () def
/ftail (symbol-table.py) def
% User defined strings:
/fmodstr (Tue Mar 26 12:28:11 2002) def
/pagenumstr (2) def
/user_header_p false def
%%EndPageSetup
do_header
5 716 M
(#There are several approaches to implementing this, here we outline two:) s
5 705 M
(#) s
5 694 M
(#\(a\) Stacking values in the same symbol table:  each name in the symbol table ) s
5 683 M
(#has a list of attribute values associated with it.  When a new block is ) s
5 672 M
(#entered the attributes of the symbol defined are pushed on top of any ) s
5 661 M
(#existing attribute values, thus, hiding them.) s
5 650 M
(#) s
5 639 M
(#When the scope of a block is left it is necessary to remove all the ) s
5 628 M
(#declarations introduced in that block.  This means that the introduced ) s
5 617 M
(#declarations of a block must be marked in some manner so that they can ) s
5 606 M
(#be removed.  A simple scheme is to associate with each set of attributes ) s
5 595 M
(#\(associated with a name\) a level number.  The deletion is then of a level.) s
5 584 M
(#The disadvantage of this scheme is that one must then traverse the entire ) s
5 573 M
(#symbol table to delete a level.  This is rather expensive!) s
5 562 M
(#) s
5 551 M
(#A more efficient alternative is to chain the introduced symbols together ) s
5 540 M
(#\(by pointers\) and then remove them by traversing this chain.  Here the ) s
5 529 M
(#symbol table also needs a stack of starts for these chains as an extra ) s
5 518 M
(#structure.  ) s
5 507 M
(#) s
5 496 M
(#\(b\)  Stacking symbol tables:  the other approach is to simply open up) s
5 485 M
(#a new symbol table when one enters a block.  To find a symbol then involves ) s
5 474 M
(#seaching through the symbol tables to find the "highest" level in which ) s
5 463 M
(#the symbol appears.  This is not very efficient ... on the otherhand ) s
5 452 M
(#deletion, the removal of a level of scope is efficient.) s
5 441 M
(#) s
5 430 M
(#The great advantage of \(b\) is that it is simple.  Its \(significant\) ) s
5 419 M
(#disadvantage is that look up is slow.  For a full blown compiler ) s
5 408 M
(#it may well be worth the extra effort to develop a symbol table of ) s
5 397 M
(#type \(a\) with an efficient deletion.  Note, however, you will need to ) s
5 386 M
(#solve all the other issues of offset calculation etc.) s
5 375 M
(#) s
5 364 M
(#) s
5 353 M
(#) s
5 342 M
(#) s
5 331 M
(#Example:  ) s
5 320 M
(#) s
5 309 M
(#Consider the following program fragment:) s
5 298 M
(#) s
5 287 M
(#     var x:int;) s
5 276 M
(#     fun f\(y:int, z:int\):int) s
5 265 M
(#         { var x:int;) s
5 254 M
(#           fun g\(a:int,b:int\):int) s
5 243 M
(#               { var y:int;) s
5 232 M
(#                 begin) s
5 221 M
(#                    ...  [a:= f\(x,v\)] ...) s
5 210 M
(#                 end) s
5 199 M
(#               }) s
5 188 M
(#            begin  ... end) s
5 177 M
(#         };) s
5 166 M
(#     var v:int;) s
5 155 M
(#     begin ) s
5 144 M
(#           ....) s
5 133 M
(#     end;) s
5 100 M
(The python symbol table for this  of type \(b\) should look like when ) s
5 89 M
(we are trying to generate code for the assignment [a:= f\(x,v\)].  This ) s
5 78 M
(symbol table is built by first building the symbol table for main, ) s
5 67 M
(next the symbol table for f and finally for g:) s
5 45 M
(   [ {"vars":2,) s
5 34 M
(      "args":0,) s
5 23 M
(      "dict":{ "x":\("var","int",1\),) s
5 12 M
(             "f":\("fun",["int","int"],"int",'code_label_f'\),) s
_R
S
%%Page: (3) 4
%%BeginPageSetup
_S
24 24 translate
/pagenum 3 def
/fname (symbol-table.py) def
/fdir () def
/ftail (symbol-table.py) def
% User defined strings:
/fmodstr (Tue Mar 26 12:28:11 2002) def
/pagenumstr (3) def
/user_header_p false def
%%EndPageSetup
do_header
5 716 M
(             "v":\("var","int",2\)}},) s
5 705 M
(     {"vars":1,) s
5 694 M
(      "args":2,) s
5 683 M
(      "dict":{ "y":\("var","int",-5\),) s
5 672 M
(             "z":\("var","int",-4\),) s
5 661 M
(             "x":\("var","int",1\),) s
5 650 M
(             "g":\("fun",["int","int"],"int","code_label_g"\)}}, ) s
5 639 M
(    {"vars":1,) s
5 628 M
(     "args":2,) s
5 617 M
(     "dict":{ "a":\("var","int",-5\),) s
5 606 M
(             "b":\("var","int",-4\),) s
5 595 M
(             "y":\("var","int",1\)}}) s
5 584 M
(    ]) s
5 562 M
(Note that we add elements to the end of the symbol table list.) s
5 540 M
(#Now when we look up "a" in this symbol table we find it immediately.  ) s
5 529 M
(#Because it is an argument of the function it has a negative offset ) s
5 518 M
(#\(it occurs before the frame pointer\).  In this way with each symbol ) s
5 507 M
(#we may associate a level, with each variable an offset, and with each) s
5 496 M
(#function a code label:) s
5 485 M
(#) s
5 474 M
(#              name     level    type              attribute ) s
5 463 M
(#              ---------------------------------------------) s
5 452 M
(#              "a"       0        int               -5 offset) s
5 441 M
(#              "f"       2    \([int,int],int\)       code_label_f) s
5 430 M
(#              "x"       1        int                1 offset) s
5 419 M
(#              "v"       2        int                2 offset) s
5 408 M
(#) s
5 397 M
(#These attributes can then be used in the generation of code.) s
5 364 M
(Programming a symbol table in Python) s
5 353 M
(=================================) s
5 331 M
(#Below is an almost complete implementation of a symbol table for m+ \(the ) s
5 320 M
(#label generating functions are missing\)!!) s
5 309 M
(#) s
5 298 M
(#The two main operations we want to be able to perform on a symbol table ) s
5 287 M
(#are the insertion and lookup.  The deletion will actually take care of itself ) s
5 276 M
(#in this simple design through the way that sml handles data.  ) s
5 265 M
(#) s
5 254 M
(#Insertion:) s
5 243 M
(#----------) s
5 232 M
(#) s
5 221 M
(#We first need to think about the form of the things we will wish to insert ) s
5 210 M
(#in the symbol table.  The following datatype describes what we will be ) s
5 199 M
(#allowed to insert:) s
5 177 M
(#datatype SYM_DESC = ARGUMENT of string * M_type ) s
5 166 M
(#                  | VARIABLE of string * M_type) s
5 155 M
(#                  | FUNCTION of string * M_type list * M_type;) s
5 133 M
(Rather than an algebraic type here, simply use a tuple in python. That is) s
5 122 M
(  \("arg","x", "int"\)   or) s
5 111 M
(  \("fun","f",["int","bool"],"int"\)) s
5 100 M
(  ) s
5 78 M
(#This distinguishes three types of thing we may want to insert) s
5 67 M
(#      \(1\) an argument with its type) s
5 56 M
(#      \(2\) a \(local\) variable with its type) s
5 45 M
(#      \(3\) a \(local\) function with its type) s
5 34 M
(#in each case we insert a string with its type, however, the symbol table ) s
5 23 M
(#will treat the cases rather differently.  For example in the case of a ) s
5 12 M
(#function insertion the symbol table must create a label \(for the jump\).  ) s
_R
S
%%Page: (4) 5
%%BeginPageSetup
_S
24 24 translate
/pagenum 4 def
/fname (symbol-table.py) def
/fdir () def
/ftail (symbol-table.py) def
% User defined strings:
/fmodstr (Tue Mar 26 12:28:11 2002) def
/pagenumstr (4) def
/user_header_p false def
%%EndPageSetup
do_header
5 716 M
(#In the case of an argument insertion the offset calculation is completely ) s
5 705 M
(#different from a variable insertion.  We will return to this when we discuss ) s
5 694 M
(#the implementation.) s
5 683 M
(#) s
5 672 M
(#The insertion function will have the following type:) s
5 661 M
(#) s
5 650 M
(#    insert: ST * SYM_DESC -> ST) s
5 628 M
(def insert\(symt, symdesc\):) s
5 617 M
(      ...) s
5 606 M
(      modify the symt here) s
5 595 M
(      ) s
5 584 M
(#where ST is the type of the symbol table.  It we try to insert an already ) s
5 573 M
(#locally declared symbol into the symbol-table then an error will be raised.  ) s
5 562 M
(#This is handled through sml's exceptions.) s
5 540 M
(#Lookup:) s
5 529 M
(#-------) s
5 507 M
(#When we do a look up we expect back certain information: again I will create ) s
5 496 M
(#a special datatype for the returned information so that I know exactly what ) s
5 485 M
(#information is to be passed back:) s
5 463 M
(#datatype SYM_I_DESC = I_VARIABLE of int * int * M_type) s
5 452 M
(#                    | I_FUNCTION of int * string * M_type list * M_type;) s
5 430 M
(Again, use a tuple here:) s
5 419 M
(   \("var",3, 4, "int"\)) s
5 408 M
(   \("fun",2 , labelf , ["int", "bool"], "int"\)) s
5 397 M
(#) s
5 386 M
(#Here there are only two variants ) s
5 375 M
(#         \(1\) the symbol is a variable ) s
5 364 M
(#                 I_VARIABLE\(level, offset, type\)) s
5 353 M
(#             it was found at level <level> in the symbol table and is at ) s
5 342 M
(#             offset <offset> from the frame pointer of that activation record.) s
5 331 M
(#             The variable is of type <type>.) s
5 320 M
(#         \(2\) the symbol is a function) s
5 309 M
(#                 I_FUNCTION\(level,label,arg_type,type\)) s
5 298 M
(#             it was found at level <level>, the label to which you must jump ) s
5 287 M
(#             is <label>.  The types of its arguments are <arg_type> and the ) s
5 276 M
(#             type of its returned value is <type>.) s
5 265 M
(#) s
5 254 M
(#Again if anything goes wrong I will raise an exception!  This means that a ) s
5 243 M
(#retrieval is a function of the following type:) s
5 221 M
(We don't need this as much in python as we are going to use a dictionary to) s
5 210 M
(store the elements. As such we can test if it is in the symbol table or not) s
5 199 M
(right at the start) s
5 177 M
(#) s
5 166 M
(#   lookup: ST * string -> SYM_I_DESC) s
5 155 M
(#) s
5 144 M
(#Scope change and the empty symbol table stack:) s
5 133 M
(#---------------------------------------------) s
5 122 M
(#) s
5 111 M
(#We have to supply two further functions in the sml implementation:) s
5 100 M
(#) s
5 89 M
(#   empty: unit -> ST) s
5 78 M
(#   new_scope: ST -> ST) s
5 67 M
(#) s
5 56 M
(#The first  of these functions simply supplies an empty symbol table ) s
5 45 M
(#while the second starts a new symbol table "scope level".) s
5 34 M
(#) s
5 23 M
(#In a C implemenentation you may need a further function to remove ) s
5 12 M
(#a scope level:) s
_R
S
%%Page: (5) 6
%%BeginPageSetup
_S
24 24 translate
/pagenum 5 def
/fname (symbol-table.py) def
/fdir () def
/ftail (symbol-table.py) def
% User defined strings:
/fmodstr (Tue Mar 26 12:28:11 2002) def
/pagenumstr (5) def
/user_header_p false def
%%EndPageSetup
do_header
5 716 M
(#) s
5 705 M
(#    remove_scope: ST -> ST) s
5 694 M
(#) s
5 683 M
(#) s
5 672 M
(#The signature of the symbol table) s
5 661 M
(#---------------------------------) s
5 650 M
(#) s
5 639 M
(#Collecting this together we have an an abstract datatype which is a symbol ) s
5 628 M
(#table.  This datatype has the above mentioned functions which allow one ) s
5 617 M
(#to manipulate the contents.  In SML we may represent this as a signature:) s
5 606 M
(#) s
5 595 M
(#signature SYMBOL_TABLE =) s
5 584 M
(#sig ) s
5 573 M
(#   exception SYM_ERROR of string) s
5 562 M
(#   type ST) s
5 551 M
(#   val empty: unit -> ST) s
5 540 M
(#   val new_scope: ST -> ST) s
5 529 M
(#   val remove_scope: ST -> \(ST * int\)) s
5 518 M
(#   val insert: ST * SYM_DESC -> ST) s
5 507 M
(#   val lookup: ST * string -> SYM_I_DESC) s
5 496 M
(#end) s
5 485 M
(#) s
5 474 M
(#Here ST is the abstract datatype of the stack.  As things can go wrong we ) s
5 463 M
(#allow some exceptions to be raised.  Finally we need the functions ) s
5 452 M
(#we have described above to manipulate the symbol table.) s
5 441 M
(#) s
5 430 M
(#) s
5 419 M
(#The implementation:) s
5 408 M
(#-------------------) s
5 397 M
(#) s
5 386 M
(#The last step is to implement this signature.  In SML we use a structure) s
5 375 M
(#to do this:) s
5 364 M
(#) s
5 353 M
(#structure simple_st:SYMBOL_TABLE =) s
5 342 M
(#struct) s
5 331 M
(#    ....) s
5 320 M
(#end;) s
5 309 M
(#) s
5 298 M
(#where inside the structure we place the code for the various required ) s
5 287 M
(#functions.  The structure only "exports" those functions \(and types\) ) s
5 276 M
(#mentioned in the signature. ) s
5 265 M
(#) s
5 254 M
(#\(a\) Internal and exported datatypes:) s
5 243 M
(#    -------------------------------) s
5 232 M
(#) s
5 221 M
(#The implementation of the symbol table uses datatypes which are not ) s
5 210 M
(#exported to the outside world.  They might look like:) s
5 199 M
(#) s
5 188 M
(#   exception SYM_ERROR of string) s
5 177 M
(#) s
5 166 M
(#   datatype SYM_VALUE = var_attr of int * M_type) s
5 155 M
(#                      | fun_attr of string * M_type list * M_type;) s
5 144 M
(#) s
5 133 M
(#   datatype SYM_TABLE = symbol_table of int * int * \(\(string * SYM_VALUE\) list\);) s
5 122 M
(#) s
5 111 M
(#   type ST = SYM_TABLE list;) s
5 100 M
(#) s
5 78 M
(In python, we would declare the exception as a class. I'm not doing that here.) s
5 67 M
(SYM_VALUE we talked about earlier.) s
5 45 M
(When I originally presented this, I suggested the value for SYM_TABLE be handled by) s
5 34 M
(a tuple in python. That doesn't work, as tuples are immutable. Rather, we can use) s
5 23 M
(either a dictionary or a list. I will use a dictionary for documentations sake.) s
_R
S
%%Page: (6) 7
%%BeginPageSetup
_S
24 24 translate
/pagenum 6 def
/fname (symbol-table.py) def
/fdir () def
/ftail (symbol-table.py) def
% User defined strings:
/fmodstr (Tue Mar 26 12:28:11 2002) def
/pagenumstr (6) def
/user_header_p false def
%%EndPageSetup
do_header
5 716 M
(A symbol table then is made up of a list of dictionaries, with the most recent added) s
5 705 M
(to the end. \(See the example near the top.\)) s
5 683 M
(#Here there is an "exception" \(which is exported\).  A type of symbol table value ) s
5 672 M
(#\(which is private\): this can be either the attributes of a function or of ) s
5 661 M
(#a variable.  For a variable we hold its offset \(which can be negative\) and ) s
5 650 M
(#its type.  For a function we hold its label and its type.  ) s
5 639 M
(#) s
5 628 M
(#A symbol table level is essentially a list of these values paired with ) s
5 617 M
(#strings together with two integers to keep track of the positive and ) s
5 606 M
(#negative offsets.  The first integer is the number of local variables ) s
5 595 M
(#inserted into the table. The next local variable inserted must ) s
5 584 M
(#increment this value and take this as its offset.  The second integer is the ) s
5 573 M
(#number of arguments: the next argument inserted must increment this value ) s
5 562 M
(#and take as it negative offset three more than this incremented value.    ) s
5 551 M
(#Note that the arguments must be inserted in reverse order into this symbol ) s
5 540 M
(#table.  Also remember that arguments occur BEFORE the frame pointer so ) s
5 529 M
(#will be accessed by negative offsets.) s
5 518 M
(#) s
5 507 M
(#A symbol table is a list of symbol table levels and this \(as an abstract ) s
5 496 M
(#type\) is exported to the outside world.) s
5 485 M
(#) s
5 474 M
(#) s
5 463 M
(#\(b\) The  empty symbol table and adding a level:) s
5 452 M
(#    -------------------------------------------) s
5 441 M
(#) s
5 430 M
(#These are the two simplest functions they are:) s
5 419 M
(#) s
5 408 M
(#   val new: unit -> ST = fn \(\) => [];) s
5 397 M
(#) s
5 386 M
(#   val new_scope: ST -> ST = fn s => \(symbol_table\(0,0,[]\)\)::s;) s
5 364 M
(These are not really needed in python. The biggest difference here is that in python) s
5 353 M
(it is simpler to add/delete items from the end of the list. Hence, our "new scope" will) s
5 342 M
(be created by the statement:) s
5 331 M
(      ) s
5 309 M
(      symt.append\({"vars":0,"args":0,"dict":{}}\)) s
5 276 M
(#) s
5 265 M
(#\(b\) Lookup:) s
5 254 M
(#    -------) s
5 243 M
(#) s
5 232 M
(#The next simplest function is the lookup.  Here we look down through the levels ) s
5 221 M
(#until we find the symbol: ) s
5 210 M
(#) s
5 199 M
(#   val lookup: ST * string -> SYM_I_DESC = fn \(s, x\) => ) s
5 188 M
(#) s
5 177 M
(#    let fun found \(Level, var_attr\(Offset,Type\)\) ) s
5 166 M
(#                    =  I_VARIABLE\(Level,Offset,Type\)) s
5 155 M
(#          | found \(Level, fun_attr\(Label,Arg_Type,Type\)\) ) s
5 144 M
(#                    = I_FUNCTION\(Level,Label,Arg_Type,Type\);) s
5 133 M
(#) s
5 122 M
(#        fun find_level \(\(str,v\)::rest\) = if x=str then v) s
5 111 M
(#                                         else find_level rest) s
5 100 M
(#          | find_level [] = raise SYM_ERROR x) s
5 89 M
(#) s
5 78 M
(#        fun find n [] =  raise SYM_ERROR ) s
5 67 M
(#                    \("Symbol table error: symbol "^x^" not found.\\n"\)) s
5 56 M
(#          | find n \(symbol_table\(_,_,vs\)::rest\) =\(found\(n,\(find_level vs\)\)\)) s
5 45 M
(#                 handle SYM_ERROR _ =>  find \(n+1\) rest) s
5 34 M
(#) s
5 23 M
(#    in find 0 s end;) s
_R
S
%%Page: (7) 8
%%BeginPageSetup
_S
24 24 translate
/pagenum 7 def
/fname (symbol-table.py) def
/fdir () def
/ftail (symbol-table.py) def
% User defined strings:
/fmodstr (Tue Mar 26 12:28:11 2002) def
/pagenumstr (7) def
/user_header_p false def
%%EndPageSetup
do_header
5 705 M
(We will differ here somewhat, as our symbol table adds items to the end, rather than) s
5 694 M
(the front) s
5 683 M
(def lookup\(symt, lk\):) s
5 672 M
(      for level in range\(len\(symt\)-1,-1,-1\):) s
5 661 M
(            if symt[level]["dict"].has_key\(lk\):) s
5 650 M
(                  if symt[level]["dict"][lk][0] == "var":) s
5 639 M
(                        return \(level, symt[level]["dict"][lk][1],symt[level]["dict"][lk][2]) s
5 628 M
(\)) s
5 617 M
(                  else:) s
5 606 M
(                         return \(level, symt[level]["dict"][lk][1],symt[level]["dict"][lk][2) s
5 595 M
(],symt[level]["dict"][lk][3]\)) s
5 584 M
(      raise "notFound") s
5 562 M
(So, we return the value \(together with the level\)if it is found, otherwise, we raise) s
5 551 M
(an exception. \(Note that you can find easier and clearer ways to write this\)) s
5 529 M
(#The subsiduary function "found" simply converts the data retrieved into the form ) s
5 518 M
(#required by the lookup from the internal form.  "find_level" searches a level for ) s
5 507 M
(#the symbol while "find" searches the levels in turn until the symbol is found ) s
5 496 M
(#raising an exception when it is not found.) s
5 485 M
(#) s
5 474 M
(#) s
5 463 M
(#\(c\)  Insertion:) s
5 452 M
(#) s
5 441 M
(#When we insert information we must generate the correct offsets and for ) s
5 430 M
(#function symbols a new label:) s
5 419 M
(#) s
5 408 M
(#) s
5 397 M
(#   val insert: ST * SYM_DESC -> ST = ) s
5 386 M
(#    fn \(s,d\) => case s of ) s
5 375 M
(#      [] => raise SYM_ERROR ) s
5 364 M
(#            "Symbol table error: insertion before defining scope.") s
5 353 M
(#    | \(\(symbol_table\(nL,nA,sL\)\)::rest\) =>) s
5 342 M
(#          \(case d of ) s
5 331 M
(#             ARGUMENT\(str,T\) ) s
5 320 M
(#              => if \(in_index_list str sL\) then raise SYM_ERROR ) s
5 309 M
(#                \("Symbol table error: "^str^"is already defined."\)) s
5 298 M
(#                 else symbol_table\(nL,nA+1) s
5 287 M
(#                             ,\(str,var_attr\(~\(nA+4\),T\)\)::sL\)) s
5 276 M
(#           | VARIABLE \(str,T\) ) s
5 265 M
(#              => if \(in_index_list str sL\) then raise SYM_ERROR ) s
5 254 M
(#                \("Symbol table error: "^str^"is already defined."\)) s
5 243 M
(#                 else symbol_table\(nL+1,nA) s
5 232 M
(#                             ,\(str,var_attr\(nL+1,T\)\)::sL\)) s
5 221 M
(#           | FUNCTION \(str,Ts,T\)) s
5 210 M
(#              => if \(in_index_list str sL\) then raise SYM_ERROR ) s
5 199 M
(#                \("Symbol table error: "^str^"is already defined."\)) s
5 188 M
(#                 else symbol_table\(nL,nA) s
5 177 M
(#                             ,\(str,fun_attr\(getlabel "fn",Ts,T\)\)::sL\)) s
5 166 M
(#          \)::rest;  ) s
5 155 M
(# ) s
5 144 M
(#                              ) s
5 133 M
(#where ) s
5 122 M
(#) s
5 111 M
(#fun in_index_list str [] = false) s
5 100 M
(#  | in_index_list str \(\(x,_\)::xs\) = if str=x then true) s
5 89 M
(#                                   else in_index_list str xs;) s
5 78 M
(#) s
5 67 M
(#) s
5 56 M
(To insert, we are always changing the lists last element.) s
5 34 M
(def insert\(symt,symv\):) s
5 23 M
(      '''Does not handle overloading!, symv=\('var'|'arg',symname,type\) or) s
5 12 M
(      \('fun',symname,arglisttypes,type\)''') s
_R
S
%%Page: (8) 9
%%BeginPageSetup
_S
24 24 translate
/pagenum 8 def
/fname (symbol-table.py) def
/fdir () def
/ftail (symbol-table.py) def
% User defined strings:
/fmodstr (Tue Mar 26 12:28:11 2002) def
/pagenumstr (8) def
/user_header_p false def
%%EndPageSetup
do_header
5 716 M
(      symentry=symt[len\(symt\)-1] # ease of use) s
5 705 M
(      if symentry['dict'].has_key\(symv[1]\):) s
5 694 M
(            raise "Duplicate error") s
5 683 M
(      if symv[0] == 'arg': #nb, requires reversing order of args as passed in.) s
5 672 M
(            symentry['dict'][symv[1]]=\('var',-\(4+symentry['args']\),symv[2]\)) s
5 661 M
(            symentry['args']+=1) s
5 650 M
(      if symv[0] == 'var':) s
5 639 M
(            symentry['vars']+=1) s
5 628 M
(            symentry['dict'][symv[1]]=\('var',symentry['vars'],symv[2]\)) s
5 617 M
(      if symv[0] == 'fun':) s
5 606 M
(            symentry['dict'][symv[1]]=\('fun',symv[2],symv[3],getlabel\( symv[1]\)\)) s
5 573 M
(#Removing scope:) s
5 562 M
(#--------------) s
5 551 M
(#) s
5 540 M
(#This simply removes a scope level and returns the number of local variables ) s
5 529 M
(#in that level together with the modified symbol table.) s
5 518 M
(#) s
5 507 M
(#) s
5 496 M
(#Problems with blocks!!!) s
5 485 M
(#-----------------------) s
5 474 M
(#) s
5 463 M
(#This code is quite useable in SML it does not handle blocks very well ) s
5 452 M
(#as for these we do not want to add a new activation record but we do need ) s
5 441 M
(#to be able to add the block decarations to the current activation record.) s
5 430 M
(#) s
5 419 M
(#To accomplish this I suggest one adds a little more functionality to ) s
5 408 M
(#your stack of symbol tables so that you distinguish between block levels ) s
5 397 M
(#and function levels.  This can be achieved by adding an extra tag to the ) s
5 386 M
(#to the symbol tables to distinguish these two possibilities.  One then ) s
5 375 M
(#modifies level counting so that only non-block levels are counted.  ) s
5 364 M
(#Also for blocks the offset is calculated slightly differently taking into ) s
5 353 M
(#account the fact that the offset continues from the level underneath.) s
5 342 M
(#) s
5 331 M
(#To achieve this we must alter the signature slightly: ) s
5 320 M
(#) s
5 309 M
(#signature SYMBOL_TABLE =) s
5 298 M
(#sig ) s
5 287 M
(#   exception SYM_ERROR of string) s
5 276 M
(#   type ST) s
5 265 M
(#   val empty: unit -> ST) s
5 254 M
(#   val new_fun_scope: ST -> ST) s
5 243 M
(#   val new_block_scope: ST -> ST) s
5 232 M
(#   val remove_scope: ST -> \(ST * int\)) s
5 221 M
(#   val insert: ST * SYM_DESC -> ST) s
5 210 M
(#   val lookup: ST * string -> SYM_I_DESC) s
5 199 M
(#end) s
5 188 M
(#) s
5 177 M
(#So that block scopes and function scopes can be created.) s
5 166 M
(#) s
5 144 M
( ) s
_R
S
%%Trailer
%%Pages: 9
%%DocumentNeededResources: font Courier-Bold Courier 
%%EOF
